Telling Stories with Data - 2 Drinking from a fire hose
…
simulated_data

# A tibble: 151 × 2
   Division Party   
      <int> <chr>   
 1        1 Other   
 2        2 National
 3        3 Green   
 4        4 Labor   
 5        5 Green   
 6        6 National
 7        7 Liberal 
 8        8 Green   
 9        9 Green   
10       10 Other   
# … with 141 more rows
# ℹ Use `print(n = ...)` to see more rows
…
