Telling Stories with Data - 3 R essentials
…
3.5.2 filter()

We use filter() to pick particular rows of a dataset. For instance, we might be only interested in politicians that became prime minister.

australian_politicians |> 
  filter(wasPrimeMinister == 1)

# A tibble: 30 × 10
   uniqueID    surname firstName gender birthDate  birthYear deathDate  member
   <chr>       <chr>   <chr>     <chr>  <date>         <dbl> <date>      <dbl>
 1 Abbott1957  Abbott  Anthony   male   1957-11-04        NA NA              1
 2 Barton1849  Barton  Edmund    male   1849-01-18        NA 1920-01-07      1
 3 Bruce1883   Bruce   Stanley   male   1883-04-15        NA 1967-08-25      1
 4 Chifley1885 Chifley Joseph    male   1885-09-22        NA 1951-06-13      1
 5 Cook1860    Cook    Joseph    male   1860-12-07        NA 1947-07-30      1
 6 Curtin1885  Curtin  John      male   1885-01-08        NA 1945-07-05      1
 7 Deakin1856  Deakin  Alfred    male   1856-08-03        NA 1919-10-07      1
 8 Fadden1894  Fadden  Arthur    male   1894-04-13        NA 1973-04-21      1
 9 Fisher1862  Fisher  Andrew    male   1862-08-29        NA 1928-10-22      1
10 Forde1890   Forde   Francis   male   1890-07-18        NA 1983-01-28      1
# … with 20 more rows, and 2 more variables: senator <dbl>,
#   wasPrimeMinister <dbl>
…
australian_politicians |> 
  slice(853)

# A tibble: 1 × 10
  uniqueID     surname  firstName gender birthDate  birthYear deathDate member
  <chr>        <chr>    <chr>     <chr>  <date>         <dbl> <date>     <dbl>
1 Jakobsen1947 Jakobsen Carolyn   female 1947-09-11        NA NA             1
# … with 2 more variables: senator <dbl>, wasPrimeMinister <dbl>

While this may seem somewhat esoteric, it is especially useful if we would like to remove a particular row using negation, or duplicate specific rows. For instance, we could remove the first row.

australian_politicians |> 
  slice(-1)

# A tibble: 1,782 × 10
   uniqueID    surname firstName gender birthDate  birthYear deathDate  member
   <chr>       <chr>   <chr>     <chr>  <date>         <dbl> <date>      <dbl>
 1 Abbott1869  Abbott  Percy     male   1869-05-14        NA 1940-09-09      1
 2 Abbott1877  Abbott  Macartney male   1877-07-03        NA 1960-12-30      0
 3 Abbott1886  Abbott  Charles   male   1886-01-04        NA 1975-04-30      1
 4 Abbott1891  Abbott  Joseph    male   1891-10-18        NA 1965-05-07      1
 5 Abbott1957  Abbott  Anthony   male   1957-11-04        NA NA              1
 6 Abel1939    Abel    John      male   1939-06-25        NA NA              1
 7 Abetz1958   Abetz   Eric      male   1958-01-25        NA NA              0
 8 Adams1943   Adams   Judith    female 1943-04-11        NA 2012-03-31      0
 9 Adams1951   Adams   Dick      male   1951-04-29        NA NA              1
10 Adamson1857 Adamson John      male   1857-02-18        NA 1922-05-02      0
# … with 1,772 more rows, and 2 more variables: senator <dbl>,
#   wasPrimeMinister <dbl>
…
# A tibble: 3 × 10
  uniqueID   surname firstName gender birthDate  birthYear deathDate  member
  <chr>      <chr>   <chr>     <chr>  <date>         <dbl> <date>      <dbl>
1 Abbott1859 Abbott  Richard   male   NA              1859 1940-02-28      0
2 Abbott1869 Abbott  Percy     male   1869-05-14        NA 1940-09-09      1
3 Abbott1877 Abbott  Macartney male   1877-07-03        NA 1960-12-30      0
# … with 2 more variables: senator <dbl>, wasPrimeMinister <dbl>

Finally, we could duplicate the first two rows.

australian_politicians |> 
  slice(1:2, 1:n())

# A tibble: 1,785 × 10
   uniqueID   surname firstName gender birthDate  birthYear deathDate  member
   <chr>      <chr>   <chr>     <chr>  <date>         <dbl> <date>      <dbl>
 1 Abbott1859 Abbott  Richard   male   NA              1859 1940-02-28      0
 2 Abbott1869 Abbott  Percy     male   1869-05-14        NA 1940-09-09      1
 3 Abbott1859 Abbott  Richard   male   NA              1859 1940-02-28      0
 4 Abbott1869 Abbott  Percy     male   1869-05-14        NA 1940-09-09      1
 5 Abbott1877 Abbott  Macartney male   1877-07-03        NA 1960-12-30      0
 6 Abbott1886 Abbott  Charles   male   1886-01-04        NA 1975-04-30      1
 7 Abbott1891 Abbott  Joseph    male   1891-10-18        NA 1965-05-07      1
 8 Abbott1957 Abbott  Anthony   male   1957-11-04        NA NA              1
 9 Abel1939   Abel    John      male   1939-06-25        NA NA              1
10 Abetz1958  Abetz   Eric      male   1958-01-25        NA NA              0
# … with 1,775 more rows, and 2 more variables: senator <dbl>,
#   wasPrimeMinister <dbl>

3.5.3 arrange()

We use arrange() to change the order of the dataset based on the values of particular columns. For instance, we could arrange the politicians by their birthday.

australian_politicians |> 
  arrange(birthDate)

# A tibble: 1,783 × 10
   uniqueID     surname  firstName gender birthDate  birthYear deathDate  member
   <chr>        <chr>    <chr>     <chr>  <date>         <dbl> <date>      <dbl>
 1 Braddon1829  Braddon  Edward    male   1829-06-11        NA 1904-02-02      1
 2 Ferguson1830 Ferguson John      male   1830-03-15        NA 1906-03-30      0
 3 Zeal1830     Zeal     William   male   1830-12-05        NA 1912-03-11      0
 4 Fraser1832   Fraser   Simon     male   1832-08-21        NA 1919-07-30      0
 5 Groom1833    Groom    William   male   1833-03-09        NA 1901-08-08      1
 6 Sargood1834  Sargood  Frederick male   1834-05-30        NA 1903-01-02      0
 7 Fysh1835     Fysh     Philip    male   1835-03-01        NA 1919-12-20      1
 8 Playford1837 Playford Thomas    male   1837-11-26        NA 1915-04-19      0
 9 Solomon1839  Solomon  Elias     male   1839-09-02        NA 1909-05-23      1
10 McLean1840   McLean   Allan     male   1840-02-03        NA 1911-07-13      1
# … with 1,773 more rows, and 2 more variables: senator <dbl>,
#   wasPrimeMinister <dbl>

We could modify arrange() with desc() to change from ascending to descending order.

australian_politicians |> 
  arrange(desc(birthDate))

# A tibble: 1,783 × 10
   uniqueID      surname firstName gender birthDate  birthYear deathDate member
   <chr>         <chr>   <chr>     <chr>  <date>         <dbl> <date>     <dbl>
 1 SteeleJohn19… Steele… Jordon    male   1994-10-14        NA NA             0
 2 Chandler1990  Chandl… Claire    female 1990-06-01        NA NA             0
 3 Roy1990       Roy     Wyatt     male   1990-05-22        NA NA             1
 4 Thompson1988  Thomps… Phillip   male   1988-05-07        NA NA             1
 5 Paterson1987  Paters… James     male   1987-11-21        NA NA             0
 6 Burns1987     Burns   Joshua    male   1987-02-06        NA NA             1
 7 Smith1986     Smith   Marielle  female 1986-12-30        NA NA             0
 8 KakoschkeMoo… Kakosc… Skye      female 1985-12-19        NA NA             0
 9 Simmonds1985  Simmon… Julian    male   1985-08-29        NA NA             1
10 Gorman1984    Gorman  Patrick   male   1984-12-12        NA NA             1
# … with 1,773 more rows, and 2 more variables: senator <dbl>,
#   wasPrimeMinister <dbl>

And we could arrange based on more than one column. For instance, if two politicians have the same first name, then we could also arrange based on their birthday.

australian_politicians |> 
  arrange(firstName, birthDate)

# A tibble: 1,783 × 10
   uniqueID      surname firstName gender birthDate  birthYear deathDate  member
   <chr>         <chr>   <chr>     <chr>  <date>         <dbl> <date>      <dbl>
 1 Blain1894     Blain   Adair     male   1894-11-21        NA 1983-04-28      1
 2 Dein1889      Dein    Adam      male   1889-03-04        NA 1969-05-09      1
 3 Armstrong1909 Armstr… Adam      male   1909-07-01        NA 1982-02-22      1
 4 Bandt1972     Bandt   Adam      male   1972-03-11        NA NA              1
 5 Ridgeway1962  Ridgew… Aden      male   1962-09-18        NA NA              0
 6 Bennett1933   Bennett Adrian    male   1933-01-21        NA 2006-05-09      1
 7 Gibson1935    Gibson  Adrian    male   1935-11-03        NA 2015-04-30      1
 8 Wynne1850     Wynne   Agar      male   1850-01-15        NA 1934-05-12      1
 9 Robertson1882 Robert… Agnes     female 1882-07-31        NA 1968-01-29      0
10 Pittard1902   Pittard Alan      male   1902-11-15        NA 1992-12-25      1
# … with 1,773 more rows, and 2 more variables: senator <dbl>,
#   wasPrimeMinister <dbl>

We could achieve the same result by piping between two instances of arrange().

australian_politicians |> 
  arrange(birthDate) |> 
  arrange(firstName)

# A tibble: 1,783 × 10
   uniqueID      surname firstName gender birthDate  birthYear deathDate  member
   <chr>         <chr>   <chr>     <chr>  <date>         <dbl> <date>      <dbl>
 1 Blain1894     Blain   Adair     male   1894-11-21        NA 1983-04-28      1
 2 Dein1889      Dein    Adam      male   1889-03-04        NA 1969-05-09      1
 3 Armstrong1909 Armstr… Adam      male   1909-07-01        NA 1982-02-22      1
 4 Bandt1972     Bandt   Adam      male   1972-03-11        NA NA              1
 5 Ridgeway1962  Ridgew… Aden      male   1962-09-18        NA NA              0
 6 Bennett1933   Bennett Adrian    male   1933-01-21        NA 2006-05-09      1
 7 Gibson1935    Gibson  Adrian    male   1935-11-03        NA 2015-04-30      1
 8 Wynne1850     Wynne   Agar      male   1850-01-15        NA 1934-05-12      1
 9 Robertson1882 Robert… Agnes     female 1882-07-31        NA 1968-01-29      0
10 Pittard1902   Pittard Alan      male   1902-11-15        NA 1992-12-25      1
# … with 1,773 more rows, and 2 more variables: senator <dbl>,
#   wasPrimeMinister <dbl>

When we use arrange() it is important to be clear about precedence. For instance, changing to birthday and then first name would give a different arrangement.

australian_politicians |> 
  arrange(birthYear, firstName)

# A tibble: 1,783 × 10
   uniqueID    surname firstName gender birthDate birthYear deathDate  member
   <chr>       <chr>   <chr>     <chr>  <date>        <dbl> <date>      <dbl>
 1 Edwards1842 Edwards Richard   male   NA             1842 1915-10-29      1
 2 Sawers1844  Sawers  William   male   NA             1844 1916-05-19      1
 3 Barker1846  Barker  Stephen   male   NA             1846 1924-06-21      0
 4 Corser1852  Corser  Edward    male   NA             1852 1928-07-31      1
 5 Lee1856     Lee     Henry     male   NA             1856 1927-08-12      1
 6 Grant1857   Grant   John      male   NA             1857 1928-05-19      0
 7 Palmer1859  Palmer  Albert    male   NA             1859 1919-08-14      1
 8 Riley1859   Riley   Edward    male   NA             1859 1943-07-21      1
 9 Abbott1859  Abbott  Richard   male   NA             1859 1940-02-28      0
10 Kennedy1860 Kennedy Thomas    male   NA             1860 1929-02-16      1
# … with 1,773 more rows, and 2 more variables: senator <dbl>,
#   wasPrimeMinister <dbl>
…
3.5.4 mutate()

We use mutate() when we want to make a new column. For instance, perhaps we want to make a new column that is 1 if a person was both a member and a senator and 0 otherwise. That is to say that our new column would denote politicians that served in both the upper and the lower house.

australian_politicians <- 
  australian_politicians |> 
  mutate(was_both = if_else(member == 1 & senator == 1, 1, 0))

australian_politicians |> 
  select(member, senator, was_both)

# A tibble: 1,783 × 3
   member senator was_both
    <dbl>   <dbl>    <dbl>
 1      0       1        0
 2      1       1        1
 3      0       1        0
 4      1       0        0
 5      1       0        0
 6      1       0        0
 7      1       0        0
 8      0       1        0
 9      0       1        0
10      1       0        0
# … with 1,773 more rows

We could use mutate() with math, such as addition and subtraction. For instance, we could calculate the age that the politicians are (or would have been) in 2022.

australian_politicians <- 
  australian_politicians |> 
  mutate(age = 2022 - lubridate::year(birthDate))

australian_politicians |> 
  select(uniqueID, age)

# A tibble: 1,783 × 2
   uniqueID     age
   <chr>      <dbl>
 1 Abbott1859    NA
 2 Abbott1869   153
 3 Abbott1877   145
 4 Abbott1886   136
 5 Abbott1891   131
 6 Abbott1957    65
 7 Abel1939      83
 8 Abetz1958     64
 9 Adams1943     79
10 Adams1951     71
# … with 1,773 more rows
…
As we have in earlier examples, we can also use mutate() in combination with across(). This includes the potential use of the selection helpers. For instance, we could count the number of characters in both the first and last names at the same time.

australian_politicians |> 
  mutate(across(c(firstName, surname), str_count)) |> 
  select(uniqueID, firstName, surname)

# A tibble: 1,783 × 3
   uniqueID   firstName surname
   <chr>          <int>   <int>
 1 Abbott1859         7       6
 2 Abbott1869         5       6
 3 Abbott1877         9       6
 4 Abbott1886         7       6
 5 Abbott1891         6       6
 6 Abbott1957         7       6
 7 Abel1939           4       4
 8 Abetz1958          4       5
 9 Adams1943          6       5
10 Adams1951          4       5
# … with 1,773 more rows
…
           case_when(
             year_of_birth <= 1929 ~ "pre-1930",
             year_of_birth <= 1939 ~ "1930s",
             year_of_birth <= 1949 ~ "1940s",
             year_of_birth <= 1959 ~ "1950s",
             year_of_birth <= 1969 ~ "1960s",
             year_of_birth <= 1979 ~ "1970s",
             year_of_birth <= 1989 ~ "1980s",
             year_of_birth <= 1999 ~ "1990s",
             TRUE ~ "Unknown or error"
             )
  ) |> 
  select(uniqueID, year_of_birth, decade_of_birth)

# A tibble: 1,783 × 3
   uniqueID   year_of_birth decade_of_birth 
   <chr>              <dbl> <chr>           
 1 Abbott1859            NA Unknown or error
 2 Abbott1869          1869 pre-1930        
 3 Abbott1877          1877 pre-1930        
 4 Abbott1886          1886 pre-1930        
 5 Abbott1891          1891 pre-1930        
 6 Abbott1957          1957 1950s           
 7 Abel1939            1939 1930s           
 8 Abetz1958           1958 1950s           
 9 Adams1943           1943 1940s           
10 Adams1951           1951 1950s           
# … with 1,773 more rows
…
# A tibble: 2 × 2
  gender     n
  <chr>  <int>
1 female   240
2 male    1543

And there is a comparably helpful function that acts similarly tomutate(), which is add_count(). The difference is that the number will be added in a new column.

australian_politicians |> 
  group_by(gender) |> 
  add_count() |> 
  select(uniqueID, gender, n)

# A tibble: 1,783 × 3
# Groups:   gender [2]
   uniqueID   gender     n
   <chr>      <chr>  <int>
 1 Abbott1859 male    1543
 2 Abbott1869 male    1543
 3 Abbott1877 male    1543
 4 Abbott1886 male    1543
 5 Abbott1891 male    1543
 6 Abbott1957 male    1543
 7 Abel1939   male    1543
 8 Abetz1958  male    1543
 9 Adams1943  female   240
10 Adams1951  male    1543
# … with 1,773 more rows
…
