Telling Stories with Data - 6 Farm data
…
install.packages("devtools")

library(devtools)

install_github("ttimbers/canlang")

We will start with the “can_lang” dataset, which provides the number of Canadians who use each of 214 languages.

library(tidyverse)
library(canlang)

can_lang

# A tibble: 214 × 6
   category                              langu…¹ mothe…² most_…³ most_…⁴ lang_…⁵
   <chr>                                 <chr>     <dbl>   <dbl>   <dbl>   <dbl>
 1 Aboriginal languages                  Aborig…     590     235      30     665
 2 Non-Official & Non-Aboriginal langua… Afrika…   10260    4785      85   23415
 3 Non-Official & Non-Aboriginal langua… Afro-A…    1150     445      10    2775
 4 Non-Official & Non-Aboriginal langua… Akan (…   13460    5985      25   22150
 5 Non-Official & Non-Aboriginal langua… Albani…   26895   13135     345   31930
 6 Aboriginal languages                  Algonq…      45      10       0     120
 7 Aboriginal languages                  Algonq…    1260     370      40    2480
 8 Non-Official & Non-Aboriginal langua… Americ…    2685    3020    1145   21930
 9 Non-Official & Non-Aboriginal langua… Amharic   22465   12785     200   33670
10 Non-Official & Non-Aboriginal langua… Arabic   419890  223535    5585  629055
# … with 204 more rows, and abbreviated variable names ¹​language,
#   ²​mother_tongue, ³​most_at_home, ⁴​most_at_work, ⁵​lang_known
…
illustrative_sampling |>
  count(simple_random_sampling)

# A tibble: 2 × 2
  simple_random_sampling     n
  <chr>                  <int>
1 Included                  14
2 Not included              86

illustrative_sampling

# A tibble: 100 × 2
    unit simple_random_sampling
   <int> <chr>                 
 1     1 Not included          
 2     2 Not included          
 3     3 Not included          
 4     4 Not included          
 5     5 Not included          
 6     6 Not included          
 7     7 Not included          
 8     8 Not included          
 9     9 Not included          
10    10 Not included          
# … with 90 more rows
…
illustrative_sampling |>
  count(systematic_sampling)

# A tibble: 2 × 2
  systematic_sampling     n
  <chr>               <int>
1 Included               20
2 Not included           80

illustrative_sampling

# A tibble: 100 × 3
    unit simple_random_sampling systematic_sampling
   <int> <chr>                  <chr>              
 1     1 Not included           Included           
 2     2 Not included           Not included       
 3     3 Not included           Not included       
 4     4 Not included           Not included       
 5     5 Not included           Not included       
 6     6 Not included           Included           
 7     7 Not included           Not included       
 8     8 Not included           Not included       
 9     9 Not included           Not included       
10    10 Not included           Not included       
# … with 90 more rows
…
illustrative_sampling |>
  count(stratified_sampling)

# A tibble: 2 × 2
  stratified_sampling     n
  <chr>               <int>
1 Included               20
2 Not included           80

illustrative_sampling

# A tibble: 100 × 4
    unit simple_random_sampling systematic_sampling stratified_sampling
   <int> <chr>                  <chr>               <chr>              
 1     1 Not included           Included            Included           
 2     2 Not included           Not included        Not included       
 3     3 Not included           Not included        Not included       
 4     4 Not included           Not included        Not included       
 5     5 Not included           Not included        Not included       
 6     6 Not included           Included            Not included       
 7     7 Not included           Not included        Not included       
 8     8 Not included           Not included        Not included       
 9     9 Not included           Not included        Included           
10    10 Not included           Not included        Not included       
# … with 90 more rows
…
illustrative_sampling |>
  count(cluster_sampling)

# A tibble: 2 × 2
  cluster_sampling     n
  <chr>            <int>
1 Included            20
2 Not included        80

illustrative_sampling

# A tibble: 100 × 5
    unit simple_random_sampling systematic_sampling stratified_sampling cluste…¹
   <int> <chr>                  <chr>               <chr>               <chr>   
 1     1 Not included           Included            Included            Included
 2     2 Not included           Not included        Not included        Included
 3     3 Not included           Not included        Not included        Included
 4     4 Not included           Not included        Not included        Included
 5     5 Not included           Not included        Not included        Included
 6     6 Not included           Included            Not included        Included
 7     7 Not included           Not included        Not included        Included
 8     8 Not included           Not included        Not included        Included
 9     9 Not included           Not included        Included            Included
10    10 Not included           Not included        Not included        Included
# … with 90 more rows, and abbreviated variable name ¹​cluster_sampling
…
A ratio estimator of some population parameter is the ratio of two means. For instance, imagine that we knew the total number of hours that a toddler slept for a 30 day period, and we want to know how many hours the parents slept over that same period. We may have some information on the number of hours that a toddler sleeps overnight, \(x\), and the number of hours their parents sleep overnight \(y\) over a 30 day period.

set.seed(853)

sleep <-
  tibble(
    toddler_sleep = sample(x = c(2:14), size = 30, replace = TRUE),
    difference = sample(x = c(0:3), size = 30, replace = TRUE),
    parent_sleep = toddler_sleep - difference
  ) |>
  select(toddler_sleep, parent_sleep, difference)

sleep

# A tibble: 30 × 3
   toddler_sleep parent_sleep difference
           <int>        <int>      <int>
 1            10            9          1
 2            11           11          0
 3            14           12          2
 4             2            0          2
 5             6            5          1
 6            14           12          2
 7             3            3          0
 8             5            3          2
 9             4            1          3
10             4            3          1
# … with 20 more rows
…
