Telling Stories with Data - 7 Gather data
…
First we want to convert the character vector into a tibble. At this point we may like to add page numbers as well.

jane_eyre <- tibble(
  raw_text = third_example,
  page_number = c(1:2)
)

We then want to separate the lines so that each line is an observation. We can do that by looking for “\n” remembering that we need to escape the backslash as it is a special character.

jane_eyre <-
  separate_rows(jane_eyre, raw_text, sep = "\\n", convert = FALSE)

jane_eyre

# A tibble: 93 × 2
   raw_text                                                          page_number
   <chr>                                                                   <int>
 1 "CHAPTER I"                                                                 1
 2 "There was no possibility of taking a walk that day. We had been…           1
 3 "leafless shrubbery an hour in the morning; but since dinner (Mr…           1
 4 "company, dined early) the cold winter wind had brought with it …           1
 5 "penetrating, that further out-door exercise was now out of the …           1
 6 ""                                                                          1
 7 "I was glad of it: I never liked long walks, especially on chill…           1
 8 "coming home in the raw twilight, with nipped fingers and toes, …           1
 9 "chidings of Bessie, the nurse, and humbled by the consciousness…           1
10 "Eliza, John, and Georgiana Reed."                                          1
# ℹ 83 more rows
…
