Telling Stories with Data - 8 Farm data
…
The first census in Canada was conducted in 1666. This was also the first modern census, whereby every individual was recorded by name (Godfrey 1918, 179), although it is worth pointing out that it does not include Aboriginal peoples. There were 3,215 inhabitants that were counted, and the census asked about age, sex, marital status, and occupation (Statistics Canada 2017). In association with Confederation, in 1867 a decennial census was required so that political representatives could be allocated for the new Parliament. Regular censuses have occurred since then, the most recent in 2021.

We can explore some data on languages spoken in Canada from the 2016 Census using canlang (Timbers 2020). This package is not yet available on CRAN, and so we install it from GitHub, using devtools (Wickham, Hester, and Chang 2020).

install.packages("devtools")
devtools::install_github("ttimbers/canlang")

We will start with the ‘can_lang’ dataset, which provides the number of Canadians who use that language for 214 languages.

library(tidyverse)
library(canlang)

can_lang

# A tibble: 214 × 6
   category          language mother_tongue most_at_home most_at_work lang_known
   <chr>             <chr>            <dbl>        <dbl>        <dbl>      <dbl>
 1 Aboriginal langu… Aborigi…           590          235           30        665
 2 Non-Official & N… Afrikaa…         10260         4785           85      23415
 3 Non-Official & N… Afro-As…          1150          445           10       2775
 4 Non-Official & N… Akan (T…         13460         5985           25      22150
 5 Non-Official & N… Albanian         26895        13135          345      31930
 6 Aboriginal langu… Algonqu…            45           10            0        120
 7 Aboriginal langu… Algonqu…          1260          370           40       2480
 8 Non-Official & N… America…          2685         3020         1145      21930
 9 Non-Official & N… Amharic          22465        12785          200      33670
10 Non-Official & N… Arabic          419890       223535         5585     629055
# … with 204 more rows
…
illustrative_sampling <-
  tibble(
    unit = 1:100,
    simple_random_sampling =
      sample(
        x = c("Included", "Not included"),
        size = 100,
        replace = TRUE,
        prob = c(0.2, 0.8)
      )
  )

illustrative_sampling

# A tibble: 100 × 2
    unit simple_random_sampling
   <int> <chr>                 
 1     1 Not included          
 2     2 Not included          
 3     3 Not included          
 4     4 Not included          
 5     5 Not included          
 6     6 Not included          
 7     7 Not included          
 8     8 Not included          
 9     9 Not included          
10    10 Not included          
# … with 90 more rows
…
illustrative_sampling <-
  illustrative_sampling |>
  mutate(systematic_sampling =
           if_else(
             unit %in% seq.int(from = starting_point,
                                       to = 100,
                                       by = 5),
             "Included",
             "Not included"
           ))

illustrative_sampling

# A tibble: 100 × 3
    unit simple_random_sampling systematic_sampling
   <int> <chr>                  <chr>              
 1     1 Not included           Included           
 2     2 Not included           Not included       
 3     3 Not included           Not included       
 4     4 Not included           Not included       
 5     5 Not included           Not included       
 6     6 Not included           Included           
 7     7 Not included           Not included       
 8     8 Not included           Not included       
 9     9 Not included           Not included       
10    10 Not included           Not included       
# … with 90 more rows
…
illustrative_sampling <-
  illustrative_sampling |>
  mutate(stratified_sampling = if_else(unit %in% selected_within_strata,
                                       "Included",
                                       "Not included"))

illustrative_sampling

# A tibble: 100 × 4
    unit simple_random_sampling systematic_sampling stratified_sampling
   <int> <chr>                  <chr>               <chr>              
 1     1 Not included           Included            Included           
 2     2 Not included           Not included        Not included       
 3     3 Not included           Not included        Not included       
 4     4 Not included           Not included        Not included       
 5     5 Not included           Not included        Not included       
 6     6 Not included           Included            Not included       
 7     7 Not included           Not included        Not included       
 8     8 Not included           Not included        Not included       
 9     9 Not included           Not included        Included           
10    10 Not included           Not included        Not included       
# … with 90 more rows
…
illustrative_sampling <-
  illustrative_sampling |>
  mutate(
    cluster = (unit - 1) %/% 10,
    cluster_sampling = if_else(cluster %in% selected_clusters,
                               "Included",
                               "Not included")
  ) |>
  select(-cluster)

illustrative_sampling

# A tibble: 100 × 5
    unit simple_random_sampl… systematic_samp… stratified_samp… cluster_sampling
   <int> <chr>                <chr>            <chr>            <chr>           
 1     1 Not included         Included         Included         Included        
 2     2 Not included         Not included     Not included     Included        
 3     3 Not included         Not included     Not included     Included        
 4     4 Not included         Not included     Not included     Included        
 5     5 Not included         Not included     Not included     Included        
 6     6 Not included         Included         Not included     Included        
 7     7 Not included         Not included     Not included     Included        
 8     8 Not included         Not included     Not included     Included        
 9     9 Not included         Not included     Included         Included        
10    10 Not included         Not included     Not included     Included        
# … with 90 more rows
…
In particular, a ratio estimator of some population parameter is the ratio of two means. For instance, we may have some information on the number of hours that a toddler sleeps overnight, \(x\), and the number of hours their parents sleep overnight \(y\) over a 30 day period.

set.seed(853)

sleep <- 
  tibble(
    toddler_sleep = sample(x = c(2:14), size = 30, replace = TRUE),
    difference = sample(x = c(0:3), size = 30, replace = TRUE),
    parent_sleep = toddler_sleep - difference
  )

sleep

# A tibble: 30 × 3
   toddler_sleep difference parent_sleep
           <int>      <int>        <int>
 1            10          1            9
 2            11          0           11
 3            14          2           12
 4             2          2            0
 5             6          1            5
 6            14          2           12
 7             3          0            3
 8             5          2            3
 9             4          3            1
10             4          1            3
# … with 20 more rows
…
