Telling Stories with Data - 9 Clean and prepare
…
We then implement that using code to simulate data. Again, this process forces us to think about what reasonable values look like in our dataset because we must decide which functions to use. We need to think carefully about the unique values of each variable. For instance, if the variable is meant to be “gender” then unique values such as “male”, “female”, “other”, and “unknown” may be expected, but a number such as “1,000” would likely be wrong. It also forces us to be explicit about names because we must assign the output of those functions to a variable. For instance, we could simulate some population data for the US states.

set.seed(853)

simulated_population <-
  tibble(
    state = state.name,
    population = runif(n = 50, min = 0, max = 50) |>
      round(digits = 2)
  )

simulated_population

# A tibble: 50 × 2
   state       population
   <chr>            <dbl>
 1 Alabama          18.0 
 2 Alaska            6.01
 3 Arizona          24.2 
 4 Arkansas         15.8 
 5 California        1.87
 6 Colorado         20.2 
 7 Connecticut       6.54
 8 Delaware         12.1 
 9 Florida           7.9 
10 Georgia           9.44
# ℹ 40 more rows
…
toronto_shelters_2017 <-
  toronto_shelters_2017 |>
  mutate(
    # remove times
    occupancy_date =
      str_remove(
        occupancy_date,
        "T[:digit:]{2}:[:digit:]{2}:[:digit:]{2}"
        )) |>
  mutate(generated_date = ymd(occupancy_date, quiet = TRUE))

toronto_shelters_2017

# A tibble: 38,700 × 5
   occupancy_date sector   occupancy capacity generated_date
   <chr>          <chr>        <dbl>    <dbl> <date>        
 1 2017-01-01     Co-ed           16       16 2017-01-01    
 2 2017-01-01     Men             13       17 2017-01-01    
 3 2017-01-01     Men             63       63 2017-01-01    
 4 2017-01-01     Families        66       70 2017-01-01    
 5 2017-01-01     Men             58       60 2017-01-01    
 6 2017-01-01     Families       168      160 2017-01-01    
 7 2017-01-01     Families       119      150 2017-01-01    
 8 2017-01-01     Men             23       28 2017-01-01    
 9 2017-01-01     Families         8        0 2017-01-01    
10 2017-01-01     Co-ed           14       40 2017-01-01    
# ℹ 38,690 more rows
…
sim_run_data

# A tibble: 200 × 2
   five_km_time marathon_time
          <dbl>         <dbl>
 1         20.4          164.
 2         16.8          158 
 3         22.3          196.
 4         19.7          160.
 5         15.6          121.
 6         21.1          178.
 7         17            157.
 8         18.6          169.
 9         17.4          150.
10         17.8          126.
# ℹ 190 more rows
…
stopifnot(
  min(sim_run_data$marathon_time) >= 118,
  max(sim_run_data$marathon_time) <= 300
)

We can then take these tests to real data. Actual survey data on the relationship between five kilometer and marathon run times are available from Vickers and Vertosick (2016). After downloading the data, which Vickers and Vertosick (2016) make available as an “Additional file”, we can focus on the variables of interest and only individuals with both a five-kilometer time and a marathon time.

vickers_data <- 
  read_excel("13102_2016_52_MOESM2_ESM.xlsx") |> 
  select(k5_ti, mf_ti) |> 
  drop_na()

vickers_data

# A tibble: 430 × 2
   k5_ti mf_ti
   <dbl> <dbl>
 1  1075 10295
 2  1292 12292
 3  1222 13452
 4   893  9515
 5  1050 10875
 6  1603 16580
 7  1457 15440
 8  1256 13113
 9  1572 17190
10  2575 22139
# ℹ 420 more rows

The first thing that we notice is that our data are in seconds, whereas we were expecting them to be in minutes. This is fine. Our simulation and tests can update, or we can adjust our data. Our simulation and tests retain their value even when the data turn out to be slightly different, which they inevitably will.

In this case, we will divide by sixty, and round, to shift our data into minutes.

vickers_data <- 
  vickers_data |> 
  mutate(five_km_time = round(k5_ti / 60, 1),
         marathon_time = round(mf_ti / 60, 1)
         ) |> 
  select(five_km_time, marathon_time)

vickers_data

# A tibble: 430 × 2
   five_km_time marathon_time
          <dbl>         <dbl>
 1         17.9          172.
 2         21.5          205.
 3         20.4          224.
 4         14.9          159.
 5         17.5          181.
 6         26.7          276.
 7         24.3          257.
 8         20.9          219.
 9         26.2          286.
10         42.9          369 
# ℹ 420 more rows
…
We use stri_split_lines() from stringi to focus on that particular page.

# From Bob Rudis: https://stackoverflow.com/a/47793617
tanzania_dhs_page_33 <- stri_split_lines(tanzania_dhs[[33]])[[1]]

We first want to remove all the written content and focus on the table. We then want to convert that into a tibble so that we can use our familiar tidyverse approaches.

tanzania_dhs_page_33_only_data <- tanzania_dhs_page_33[31:55]

tanzania_dhs_raw <- tibble(all = tanzania_dhs_page_33_only_data)

tanzania_dhs_raw

# A tibble: 25 × 1
   all                                                                          
   <chr>                                                                        
 1 "                                  Urban                              Rural …
 2 ""                                                                           
 3 " Age group             Male      Female       Total          Male   Female …
 4 ""                                                                           
 5 ""                                                                           
 6 " 0-4                   16.4        13.8        15.1          18.1     17.1 …
 7 " 5-9                   13.5        13.0        13.2          17.5     16,0 …
 8 " 10-14                 12.6        13.1        12.8          15.3     13.5 …
 9 " 15-19                 10.8        11.3        11.1           9.8      8.8 …
10 " 20-~                   9.4        12.2        10,8           5.9      8.2 …
# ℹ 15 more rows
…
tanzania_dhs_separated

# A tibble: 25 × 10
   age_group   male_urban female_urban total_urban male_rural female_rural
   <chr>       <chr>      <chr>        <chr>       <chr>      <chr>       
 1 "Urban"     Rural      Total        <NA>        <NA>       <NA>        
 2 ""          <NA>       <NA>         <NA>        <NA>       <NA>        
 3 "Age-group" Male       Female       Total       Male       Female      
 4 ""          <NA>       <NA>         <NA>        <NA>       <NA>        
 5 ""          <NA>       <NA>         <NA>        <NA>       <NA>        
 6 "0-4"       16.4       13.8         15.1        18.1       17.1        
 7 "5-9"       13.5       13.0         13.2        17.5       16,0        
 8 "10-14"     12.6       13.1         12.8        15.3       13.5        
 9 "15-19"     10.8       11.3         11.1        9.8        8.8         
10 "20-~"      9.4        12.2         10,8        5.9        8.2         
# ℹ 15 more rows
# ℹ 4 more variables: total_rural <chr>, male_total <chr>, female_total <chr>,
#   total_total <chr>
…
# There is one row of NAs, so remove it
demography_data_long <-
  demography_data_long |>
  remove_empty(which = c("rows"))

demography_data_long

# A tibble: 123 × 4
   age   male      female    total    
   <chr> <chr>     <chr>     <chr>    
 1 Total 2,192,452 2,204,376 4,396,828
 2 0     57,265    56,523    113,788  
 3 1     56,019    54,601    110,620  
 4 2     52,518    51,848    104,366  
 5 3     51,115    51,027    102,142  
 6 4     47,182    46,889    94,071   
 7 0-4   264,099   260,888   524,987  
 8 5     45,203    44,711    89,914   
 9 6     43,635    44,226    87,861   
10 7     43,507    43,655    87,162   
# ℹ 113 more rows
…
We need to remove commas. While we could use janitor here, it is worthwhile to at least first look at what is going on because sometimes there is odd stuff that janitor (and other packages) will not deal with in a way that we want. Nonetheless, having identified everything that needs to be removed, we can do the actual removal and convert our character column of numbers to integers.

demography_data_long <-
  demography_data_long |>
  mutate(across(c(male, female, total), ~ str_remove_all(., ","))) |>
  mutate(across(c(male, female, total), ~ as.integer(.)))

demography_data_long

# A tibble: 123 × 4
   age      male  female   total
   <chr>   <int>   <int>   <int>
 1 Total 2192452 2204376 4396828
 2 0       57265   56523  113788
 3 1       56019   54601  110620
 4 2       52518   51848  104366
 5 3       51115   51027  102142
 6 4       47182   46889   94071
 7 0-4    264099  260888  524987
 8 5       45203   44711   89914
 9 6       43635   44226   87861
10 7       43507   43655   87162
# ℹ 113 more rows
…
