Telling Stories with Data - 9 Gather data
…
Notice that the first page is the first element of the character vector, and the second page is the second element. As we are most familiar with rectangular data, we will try to get it into that format as quickly as possible. And then we can use our regular tidyverse functions to deal with it.

First we want to convert the character vector into a tibble. At this point we may like to add page numbers as well.

jane_eyre <- tibble(raw_text = third_example,
                    page_number = c(1:2))

We then want to separate the lines so that each line is an observation. We can do that by looking for ‘\n’ remembering that we need to escape the backslash as it is a special character.

jane_eyre <- 
  separate_rows(jane_eyre, raw_text, sep = "\\n", convert = FALSE)
jane_eyre

# A tibble: 93 × 2
   raw_text                                                          page_number
   <chr>                                                                   <int>
 1 "CHAPTER I"                                                                 1
 2 "There was no possibility of taking a walk that day. We had been…           1
 3 "leafless shrubbery an hour in the morning; but since dinner (Mr…           1
 4 "company, dined early) the cold winter wind had brought with it …           1
 5 "penetrating, that further out-door exercise was now out of the …           1
 6 ""                                                                          1
 7 "I was glad of it: I never liked long walks, especially on chill…           1
 8 "coming home in the raw twilight, with nipped fingers and toes, …           1
 9 "chidings of Bessie, the nurse, and humbled by the consciousness…           1
10 "Eliza, John, and Georgiana Reed."                                          1
# … with 83 more rows
…
This is all looking fairly great. The only thing left is to clean up.

dhs_2000 <- 
  dhs_2000 |> 
  select(state, TFR) |> 
  slice(13:69) |> 
  mutate(year = 2000)

dhs_2000

# A tibble: 57 × 3
   state                                                             TFR    year
   <chr>                                                             <chr> <dbl>
 1 "                                  State                        … <NA>   2000
 2 "                                                               … <NA>   2000
 3 "                                                               … <NA>   2000
 4 ""                                                                <NA>   2000
 5 ""                                                                <NA>   2000
 6 "United States 1 "                                                2,13…  2000
 7 ""                                                                <NA>   2000
 8 "Alabama "                                                        2,02…  2000
 9 "Alaska "                                                         2,43…  2000
10 "Arizona "                                                        2,65…  2000
# … with 47 more rows
…
