Telling Stories with Data - 10 Store and share
…
We can pass this list to read_csv() and it will read them in and combine them.

year_of_data <-
  read_csv(
    files_of_interest,
    col_types = cols(
      user = col_double(),
      month = col_character(),
      comments = col_double(),
    )
  )

year_of_data

# A tibble: 12,000 × 3
    user month comments
   <dbl> <chr>    <dbl>
 1     1 april        0
 2     2 april        2
 3     3 april        2
 4     4 april        5
 5     5 april        1
 6     6 april        3
 7     7 april        2
 8     8 april        1
 9     9 april        4
10    10 april        3
# … with 11,990 more rows

It prints out the first ten days of April, because alphabetically April is the first month of the year and so that was the first CSV that was read.

This works well when we have CSV files, but we might not always have CSV files and so will need another way, and can use map_dfr() to do this. One nice aspect of this approach is that we can include the name of the file alongside the observation using “.id”. Here we specify that we would like that column to be called “file”, but it could be anything.

library(purrr)

year_of_data_using_purrr <-
  files_of_interest |>
  map_dfr(read_csv, .id = "file")

# A tibble: 12,000 × 4
   file       user month comments
   <chr>     <dbl> <chr>    <dbl>
 1 april.csv     1 april        0
 2 april.csv     2 april        2
 3 april.csv     3 april        2
 4 april.csv     4 april        5
 5 april.csv     5 april        1
 6 april.csv     6 april        3
 7 april.csv     7 april        2
 8 april.csv     8 april        1
 9 april.csv     9 april        4
10 april.csv    10 april        3
# … with 11,990 more rows
…
