Telling Stories with Data - 11 Clean and prepare
…
library(tidyverse)

set.seed(853)

simulated_population <- 
  tibble(
    state = state.name,
    population = runif(n = 50, min = 0, max = 50) |> 
      round(digits = 2)
  )

simulated_population

# A tibble: 50 × 2
   state       population
   <chr>            <dbl>
 1 Alabama          18.0 
 2 Alaska            6.01
 3 Arizona          24.2 
 4 Arkansas         15.8 
 5 California        1.87
 6 Colorado         20.2 
 7 Connecticut       6.54
 8 Delaware         12.1 
 9 Florida           7.9 
10 Georgia           9.44
# … with 40 more rows
…
earlier_toronto_shelters_test_date

# A tibble: 156,977 × 6
   year_from_file date       occupancy_date sector   occupancy capacity
            <dbl> <date>     <chr>          <chr>        <dbl>    <dbl>
 1           2017 2017-01-01 2017-01-01     Co-ed           16       16
 2           2017 2017-01-01 2017-01-01     Men             13       17
 3           2017 2017-01-01 2017-01-01     Men             63       63
 4           2017 2017-01-01 2017-01-01     Families        66       70
 5           2017 2017-01-01 2017-01-01     Men             58       60
 6           2017 2017-01-01 2017-01-01     Families       168      160
 7           2017 2017-01-01 2017-01-01     Families       119      150
 8           2017 2017-01-01 2017-01-01     Men             23       28
 9           2017 2017-01-01 2017-01-01     Families         8        0
10           2017 2017-01-01 2017-01-01     Co-ed           14       40
# … with 156,967 more rows
…
# Based on Bob Rudis: https://stackoverflow.com/a/47793617
tanzania_dhs_page_33 <- stri_split_lines(tanzania_dhs[[33]])[[1]] 

We first want to remove all the written content and focus on the table. We then want to convert that into a tibble so that we can use our familiar tidyverse approaches.

library(tidyverse)

tanzania_dhs_page_33_only_data <- tanzania_dhs_page_33[31:55]

tanzania_dhs_raw <- tibble(all = tanzania_dhs_page_33_only_data)

tanzania_dhs_raw

# A tibble: 25 × 1
   all                                                                          
   <chr>                                                                        
 1 "                                  Urban                              Rural …
 2 ""                                                                           
 3 " Age group             Male      Female       Total          Male   Female …
 4 ""                                                                           
 5 ""                                                                           
 6 " 0-4                   16.4        13.8        15.1          18.1     17.1 …
 7 " 5-9                   13.5        13.0        13.2          17.5     16,0 …
 8 " 10-14                 12.6        13.1        12.8          15.3     13.5 …
 9 " 15-19                 10.8        11.3        11.1           9.8      8.8 …
10 " 20-~                   9.4        12.2        10,8           5.9      8.2 …
# … with 15 more rows
…
tanzania_dhs_separated

# A tibble: 25 × 10
   age_group   male_urban female_urban total_urban male_rural female_rural
   <chr>       <chr>      <chr>        <chr>       <chr>      <chr>       
 1 "Urban"     Rural      Total        <NA>        <NA>       <NA>        
 2 ""          <NA>       <NA>         <NA>        <NA>       <NA>        
 3 "Age-group" Male       Female       Total       Male       Female      
 4 ""          <NA>       <NA>         <NA>        <NA>       <NA>        
 5 ""          <NA>       <NA>         <NA>        <NA>       <NA>        
 6 "0-4"       16.4       13.8         15.1        18.1       17.1        
 7 "5-9"       13.5       13.0         13.2        17.5       16,0        
 8 "10-14"     12.6       13.1         12.8        15.3       13.5        
 9 "15-19"     10.8       11.3         11.1        9.8        8.8         
10 "20-~"      9.4        12.2         10,8        5.9        8.2         
# … with 15 more rows, and 4 more variables: total_rural <chr>,
#   male_total <chr>, female_total <chr>, total_total <chr>
…
  return(demography_data_long)
}

We now have a function that does what we need to each page of the PDF. We use map_dfr() from purrr (Henry and Wickham 2020) to apply that function to each page, and then combine all the outputs into one tibble.

pages <- c(30:513)
all_tables <- map_dfr(pages, get_data)
rm(pages, get_data)

all_tables

# A tibble: 59,532 × 7
   age   male    female  total     area    table                            page
   <chr> <chr>   <chr>   <chr>     <chr>   <chr>                           <int>
 1 Total 610,257 598,046 1,208,303 Mombasa Table 2.3: Distribution of Pop…    30
 2 0     15,111  15,009  30,120    Mombasa Table 2.3: Distribution of Pop…    30
 3 1     15,805  15,308  31,113    Mombasa Table 2.3: Distribution of Pop…    30
 4 2     15,088  14,837  29,925    Mombasa Table 2.3: Distribution of Pop…    30
 5 3     14,660  14,031  28,691    Mombasa Table 2.3: Distribution of Pop…    30
 6 4     14,061  13,993  28,054    Mombasa Table 2.3: Distribution of Pop…    30
 7 0-4   74,725  73,178  147,903   Mombasa Table 2.3: Distribution of Pop…    30
 8 5     13,851  14,023  27,874    Mombasa Table 2.3: Distribution of Pop…    30
 9 6     12,889  13,216  26,105    Mombasa Table 2.3: Distribution of Pop…    30
10 7     13,268  13,203  26,471    Mombasa Table 2.3: Distribution of Pop…    30
# … with 59,522 more rows
…
We clearly need to remove commas, underbars, and hyphens. While we could use janitor here, it is worthwhile at least first looking at what is going on because sometimes there is odd stuff that janitor (and other packages) will not deal with issues in a way that we want.

We also have an odd situation with some months in what should be a numerical variable. If we look at these issues, which are on page 185, then we see that in this case it seems like the Kenyan government likely used Excel or similar, and this has converted two entries into dates. If we just took the numbers from the variable then we would have 23 and 15 here, but by inspecting the column we can use Excel to reverse the process and enter the correct values of 4,923 and 4,611, respectively.

all_tables <-
  all_tables |>
  mutate(
    male = if_else(male == "23-Jun", "4923", male),
    male = if_else(male == "15-Aug", "4611", male)
    )

all_tables

# A tibble: 59,532 × 7
   age   male    female  total     area    table                            page
   <chr> <chr>   <chr>   <chr>     <chr>   <chr>                           <int>
 1 Total 610,257 598,046 1,208,303 Mombasa Table 2.3: Distribution of Pop…    30
 2 0     15,111  15,009  30,120    Mombasa Table 2.3: Distribution of Pop…    30
 3 1     15,805  15,308  31,113    Mombasa Table 2.3: Distribution of Pop…    30
 4 2     15,088  14,837  29,925    Mombasa Table 2.3: Distribution of Pop…    30
 5 3     14,660  14,031  28,691    Mombasa Table 2.3: Distribution of Pop…    30
 6 4     14,061  13,993  28,054    Mombasa Table 2.3: Distribution of Pop…    30
 7 0-4   74,725  73,178  147,903   Mombasa Table 2.3: Distribution of Pop…    30
 8 5     13,851  14,023  27,874    Mombasa Table 2.3: Distribution of Pop…    30
 9 6     12,889  13,216  26,105    Mombasa Table 2.3: Distribution of Pop…    30
10 7     13,268  13,203  26,471    Mombasa Table 2.3: Distribution of Pop…    30
# … with 59,522 more rows

Having identified everything that needs to be removed, we can do the actual removal and convert our character column of numbers to integers.

all_tables <-
  all_tables |>
  mutate(across(c(male, female, total), ~str_remove_all(., ","))) |>
  mutate(across(c(male, female, total), ~str_replace(., "_", "0"))) |>
  mutate(across(c(male, female, total), ~str_replace(., "-", "0"))) |>
  mutate(across(c(male, female, total), ~as.integer(.)))

all_tables

# A tibble: 59,532 × 7
   age     male female   total area    table                                page
   <chr>  <int>  <int>   <int> <chr>   <chr>                               <int>
 1 Total 610257 598046 1208303 Mombasa Table 2.3: Distribution of Populat…    30
 2 0      15111  15009   30120 Mombasa Table 2.3: Distribution of Populat…    30
 3 1      15805  15308   31113 Mombasa Table 2.3: Distribution of Populat…    30
 4 2      15088  14837   29925 Mombasa Table 2.3: Distribution of Populat…    30
 5 3      14660  14031   28691 Mombasa Table 2.3: Distribution of Populat…    30
 6 4      14061  13993   28054 Mombasa Table 2.3: Distribution of Populat…    30
 7 0-4    74725  73178  147903 Mombasa Table 2.3: Distribution of Populat…    30
 8 5      13851  14023   27874 Mombasa Table 2.3: Distribution of Populat…    30
 9 6      12889  13216   26105 Mombasa Table 2.3: Distribution of Populat…    30
10 7      13268  13203   26471 Mombasa Table 2.3: Distribution of Populat…    30
# … with 59,522 more rows
…
The PDF is made-up of three long tables. So we can first get the names of the counties based on those final two tables and then reconcile them to get a list of the counties.

list_counties <- 
  all_tables |> 
  filter(table %in% c(
    "Table 2.4a: Distribution of Rural Population by Age, Sex* and County",
    "Table 2.4b: Distribution of Urban Population by Age, Sex* and County")
    ) |> 
  select(area) |> 
  distinct()

list_counties

# A tibble: 47 × 1
   area        
   <chr>       
 1 Kwale       
 2 Kilifi      
 3 Tana River  
 4 Lamu        
 5 Taita/Taveta
 6 Garissa     
 7 Wajir       
 8 Mandera     
 9 Marsabit    
10 Isiolo      
# … with 37 more rows
…
                     "Homa Bay",
                     "Isiolo",
                     "Kiambu",
                     "Machakos",
                     "Makueni",
                     "Samburu",
                     "Siaya",
                     "Tana River",
                     "Vihiga",
                     "West Pokot")
         ) |> 
  select(area, page) |> 
  distinct()

# A tibble: 24 × 2
   area        page
   <chr>      <int>
 1 Samburu       42
 2 Tana River    53
 3 Tana River    56
 4 Garissa       65
 5 Garissa       69
 6 Isiolo        98
 7 Isiolo       100
 8 Machakos     149
 9 Machakos     154
10 Makueni      159
# … with 14 more rows
…
rm(list_counties)

all_tables

# A tibble: 59,532 × 8
   age     male female   total area    table                      page area_type
   <chr>  <int>  <int>   <int> <chr>   <chr>                     <int> <chr>    
 1 Total 610257 598046 1208303 Mombasa Table 2.3: Distribution …    30 county   
 2 0      15111  15009   30120 Mombasa Table 2.3: Distribution …    30 county   
 3 1      15805  15308   31113 Mombasa Table 2.3: Distribution …    30 county   
 4 2      15088  14837   29925 Mombasa Table 2.3: Distribution …    30 county   
 5 3      14660  14031   28691 Mombasa Table 2.3: Distribution …    30 county   
 6 4      14061  13993   28054 Mombasa Table 2.3: Distribution …    30 county   
 7 0-4    74725  73178  147903 Mombasa Table 2.3: Distribution …    30 county   
 8 5      13851  14023   27874 Mombasa Table 2.3: Distribution …    30 county   
 9 6      12889  13216   26105 Mombasa Table 2.3: Distribution …    30 county   
10 7      13268  13203   26471 Mombasa Table 2.3: Distribution …    30 county   
# … with 59,522 more rows
…
