Telling Stories with Data - 11 Exploratory data analysis
…
As a first example we consider US state populations as of 1975. This dataset is built into R with state.x77. Here is what the dataset looks like:

library(tidyverse)
library(janitor)

us_populations <-
  state.x77 |>
  as_tibble() |>
  clean_names() |>
  mutate(state = rownames(state.x77)) |>
  select(state, population, income, illiteracy, life_exp, area)

us_populations

# A tibble: 50 × 6
   state       population income illiteracy life_exp   area
   <chr>            <dbl>  <dbl>      <dbl>    <dbl>  <dbl>
 1 Alabama           3615   3624        2.1     69.0  50708
 2 Alaska             365   6315        1.5     69.3 566432
 3 Arizona           2212   4530        1.8     70.6 113417
 4 Arkansas          2110   3378        1.9     70.7  51945
 5 California       21198   5114        1.1     71.7 156361
 6 Colorado          2541   4884        0.7     72.1 103766
 7 Connecticut       3100   5348        1.1     72.5   4862
 8 Delaware           579   4809        0.9     70.1   1982
 9 Florida           8277   4815        1.3     70.7  54090
10 Georgia           4931   4091        2       68.5  58073
# ℹ 40 more rows
…
remove_these_states

[1] "Florida"       "Montana"       "New Hampshire"

us_states_with_missing_observations <-
  us_populations |>
  mutate(
    population =
      if_else(state %in% remove_these_states, NA_real_, population)
  )

us_states_with_missing_observations

# A tibble: 50 × 6
   state       population income illiteracy life_exp   area
   <chr>            <dbl>  <dbl>      <dbl>    <dbl>  <dbl>
 1 Alabama           3615   3624        2.1     69.0  50708
 2 Alaska             365   6315        1.5     69.3 566432
 3 Arizona           2212   4530        1.8     70.6 113417
 4 Arkansas          2110   3378        1.9     70.7  51945
 5 California       21198   5114        1.1     71.7 156361
 6 Colorado          2541   4884        0.7     72.1 103766
 7 Connecticut       3100   5348        1.1     72.5   4862
 8 Delaware           579   4809        0.9     70.1   1982
 9 Florida             NA   4815        1.3     70.7  54090
10 Georgia           4931   4091        2       68.5  58073
# ℹ 40 more rows
…
To drop the observations with missing data, we can use mean() because by default it will exclude observations with missing values in its calculation. To impute the mean, we construct a second dataset with the observations with missing data removed. We then compute the mean of the population column, and impute that into the missing values in the original dataset. And finally, we can implement multiple imputation with mice() from mice (van Buuren and Groothuis-Oudshoorn 2011).

library(mice)

multiple_imputation <-
  mice(
    us_states_with_missing_observations,
    print = FALSE
  )
mice_estimates <-
  complete(multiple_imputation) |>
  as_tibble()
mice_estimates

# A tibble: 50 × 6
   state       population income illiteracy life_exp   area
   <chr>            <dbl>  <dbl>      <dbl>    <dbl>  <dbl>
 1 Alabama           3615   3624        2.1     69.0  50708
 2 Alaska             365   6315        1.5     69.3 566432
 3 Arizona           2212   4530        1.8     70.6 113417
 4 Arkansas          2110   3378        1.9     70.7  51945
 5 California       21198   5114        1.1     71.7 156361
 6 Colorado          2541   4884        0.7     72.1 103766
 7 Connecticut       3100   5348        1.1     72.5   4862
 8 Delaware           579   4809        0.9     70.1   1982
 9 Florida           5814   4815        1.3     70.7  54090
10 Georgia           4931   4091        2       68.5  58073
# ℹ 40 more rows
…
all_2021_ttc_data

Rows: 16370 Columns: 10
── Column specification ────────────────────────────────────────────────────────
Delimiter: ","
chr  (5): day, station, code, bound, line
dbl  (3): min_delay, min_gap, vehicle
dttm (1): date
time (1): time

ℹ Use `spec()` to retrieve the full column specification for this data.
ℹ Specify the column types or set `show_col_types = FALSE` to quiet this message.

# A tibble: 16,370 × 10
   date                time   day    station code  min_delay min_gap bound line 
   <dttm>              <time> <chr>  <chr>   <chr>     <dbl>   <dbl> <chr> <chr>
 1 2021-01-01 00:00:00 00:33  Friday BLOOR … MUPAA         0       0 N     YU   
 2 2021-01-01 00:00:00 00:39  Friday SHERBO… EUCO          5       9 E     BD   
 3 2021-01-01 00:00:00 01:07  Friday KENNED… EUCD          5       9 E     BD   
 4 2021-01-01 00:00:00 01:41  Friday ST CLA… MUIS          0       0 <NA>  YU   
 5 2021-01-01 00:00:00 02:04  Friday SHEPPA… MUIS          0       0 <NA>  YU   
 6 2021-01-01 00:00:00 02:35  Friday KENNED… MUIS          0       0 <NA>  BD   
 7 2021-01-01 00:00:00 02:39  Friday VAUGHA… MUIS          0       0 <NA>  YU   
 8 2021-01-01 00:00:00 06:00  Friday TORONT… MUO           0       0 <NA>  YU   
 9 2021-01-01 00:00:00 06:00  Friday TORONT… MUO           0       0 <NA>  SHP  
10 2021-01-01 00:00:00 06:00  Friday TORONT… MRO           0       0 <NA>  SRT  
# ℹ 16,360 more rows
# ℹ 1 more variable: vehicle <dbl>
…
all_2021_ttc_data_filtered_lines <-
  all_2021_ttc_data |>
  filter(line %in% c("YU", "BD", "SHP", "SRT"))

Entire careers are spent understanding missing data, and the presence, or lack, of missing values can haunt an analysis. To get started we could look at known-unknowns, which are the NAs for each variable. For instance, we could create counts by variable.

In this case we have many missing values in “bound” and two in “line”. For these known-unknowns, as discussed in Chapter 6, we are interested in whether or not they are missing at random. We want to, ideally, show that data happened to just drop out. This is unlikely, and so we are usually trying to look at what is systematic about how our data are missing.

Sometimes data happen to be duplicated. If we did not notice this, then our analysis would be wrong in ways that we would not be able to consistently expect. There are a variety of ways to look for duplicated rows, but get_dupes() from janitor (Firke 2021) is especially useful.

get_dupes(all_2021_ttc_data_filtered_lines)

No variable names specified - using all columns.

# A tibble: 36 × 11
   date                time   day    station code  min_delay min_gap bound line 
   <dttm>              <time> <chr>  <chr>   <chr>     <dbl>   <dbl> <chr> <chr>
 1 2021-09-13 00:00:00 06:00  Monday TORONT… MRO           0       0 <NA>  SRT  
 2 2021-09-13 00:00:00 06:00  Monday TORONT… MRO           0       0 <NA>  SRT  
 3 2021-09-13 00:00:00 06:00  Monday TORONT… MRO           0       0 <NA>  SRT  
 4 2021-09-13 00:00:00 06:00  Monday TORONT… MUO           0       0 <NA>  SHP  
 5 2021-09-13 00:00:00 06:00  Monday TORONT… MUO           0       0 <NA>  SHP  
 6 2021-09-13 00:00:00 06:00  Monday TORONT… MUO           0       0 <NA>  SHP  
 7 2021-03-31 00:00:00 05:45  Wedne… DUNDAS… MUNCA         0       0 <NA>  BD   
 8 2021-03-31 00:00:00 05:45  Wedne… DUNDAS… MUNCA         0       0 <NA>  BD   
 9 2021-06-08 00:00:00 14:40  Tuesd… VAUGHA… MUNOA         3       6 S     YU   
10 2021-06-08 00:00:00 14:40  Tuesd… VAUGHA… MUNOA         3       6 S     YU   
# ℹ 26 more rows
# ℹ 2 more variables: vehicle <dbl>, dupe_count <int>
…
We could try to quickly bring a little order to the chaos by just taking just the first word or first few words, accounting for names like “ST. CLAIR” and “ST. PATRICK” by checking if the name starts with “ST”, as well as distinguishing between stations like “DUNDAS” and “DUNDAS WEST” by checking if the name contains “WEST”. Again, we are just trying to get a sense of the data, not necessarily make binding decisions here. We use word() from stringr to extract specific words from the station names.

all_2021_ttc_data_no_dupes <-
  all_2021_ttc_data_no_dupes |>
  mutate(station_clean = case_when(
    str_starts(station, "ST") & str_detect(station, "WEST") ~ word(station, 1, 3),
    str_starts(station, "ST") ~ word(station, 1, 2),
    str_detect(station, "WEST") ~ word(station, 1, 2),
    TRUE ~ word(station, 1)
  ))

all_2021_ttc_data_no_dupes

# A tibble: 15,908 × 11
   date                time   day    station code  min_delay min_gap bound line 
   <dttm>              <time> <chr>  <chr>   <chr>     <dbl>   <dbl> <chr> <chr>
 1 2021-01-01 00:00:00 00:33  Friday BLOOR … MUPAA         0       0 N     YU   
 2 2021-01-01 00:00:00 00:39  Friday SHERBO… EUCO          5       9 E     BD   
 3 2021-01-01 00:00:00 01:07  Friday KENNED… EUCD          5       9 E     BD   
 4 2021-01-01 00:00:00 01:41  Friday ST CLA… MUIS          0       0 <NA>  YU   
 5 2021-01-01 00:00:00 02:04  Friday SHEPPA… MUIS          0       0 <NA>  YU   
 6 2021-01-01 00:00:00 02:35  Friday KENNED… MUIS          0       0 <NA>  BD   
 7 2021-01-01 00:00:00 02:39  Friday VAUGHA… MUIS          0       0 <NA>  YU   
 8 2021-01-01 00:00:00 06:00  Friday TORONT… MUO           0       0 <NA>  YU   
 9 2021-01-01 00:00:00 06:00  Friday TORONT… MUO           0       0 <NA>  SHP  
10 2021-01-01 00:00:00 06:00  Friday TORONT… MRO           0       0 <NA>  SRT  
# ℹ 15,898 more rows
# ℹ 2 more variables: vehicle <dbl>, station_clean <chr>
…
all_2021_ttc_data_no_dupes_with_explanation <-
  all_2021_ttc_data_no_dupes |>
  mutate(type = if_else(line == "SRT", "srt", "sub")) |>
  left_join(
    fix_organization_of_codes,
    by = c("type", "code")
  )

all_2021_ttc_data_no_dupes_with_explanation |>
  select(station_clean, code, min_delay, code_desc) |>
  arrange(-min_delay)

# A tibble: 15,908 × 4
   station_clean code  min_delay code_desc                                  
   <chr>         <chr>     <dbl> <chr>                                      
 1 MUSEUM        PUTTP       348 Traction Power Rail Related                
 2 EGLINTON      PUSTC       343 Signals - Track Circuit Problems           
 3 WOODBINE      MUO         312 Miscellaneous Other                        
 4 MCCOWAN       PRSL        275 Loop Related Failures                      
 5 SHEPPARD WEST PUTWZ       255 Work Zone Problems - Track                 
 6 ISLINGTON     MUPR1       207 Priority One - Train in Contact With Person
 7 SHEPPARD WEST MUPR1       191 Priority One - Train in Contact With Person
 8 ROYAL         SUAP        182 Assault / Patron Involved                  
 9 ROYAL         MUPR1       180 Priority One - Train in Contact With Person
10 SHEPPARD      MUPR1       171 Priority One - Train in Contact With Person
# ℹ 15,898 more rows
…
airbnb_data_selected

# A tibble: 66,152 × 21
   host_id host_since host_response_time host_is_superhost host_listings_count
     <dbl> <date>     <chr>              <lgl>                           <dbl>
 1   54730 2009-11-16 within a few hours FALSE                               3
 2   60302 2009-12-05 a few days or more FALSE                               1
 3   41759 2009-09-28 within a few hours FALSE                               1
 4   67915 2010-01-05 within a few hours FALSE                               3
 5   67564 2010-01-04 within a few hours FALSE                              18
 6  103583 2010-04-05 N/A                FALSE                               3
 7  155938 2010-06-30 within a few hours TRUE                                1
 8  144444 2010-06-14 within a few hours FALSE                               2
 9  134606 2010-05-29 within a few hours FALSE                               1
10  157884 2010-07-04 within a few hours FALSE                               4
# ℹ 66,142 more rows
# ℹ 16 more variables: host_total_listings_count <dbl>,
#   host_neighbourhood <chr>, neighbourhood_cleansed <chr>, room_type <chr>,
#   bathrooms <lgl>, bedrooms <dbl>, price <chr>, number_of_reviews <dbl>,
#   has_availability <lgl>, review_scores_rating <dbl>,
#   review_scores_accuracy <dbl>, review_scores_cleanliness <dbl>,
#   review_scores_checkin <dbl>, review_scores_communication <dbl>, …
…
[1] "$49.00"  "$75.00"  "$195.00" "$160.00" "$379.00" "$29.00" 

airbnb_data_selected$price |>
  str_split("") |>
  unlist() |>
  unique()

 [1] "$" "4" "9" "." "0" "7" "5" "1" "6" "3" "2" "8" ","

airbnb_data_selected |>
  select(price) |>
  filter(str_detect(price, ","))

# A tibble: 976 × 1
   price    
   <chr>    
 1 $1,000.00
 2 $1,500.00
 3 $1,071.00
 4 $2,000.00
 5 $1,150.00
 6 $1,000.00
 7 $1,100.00
 8 $2,211.00
 9 $5,000.00
10 $5,500.00
# ℹ 966 more rows
…
