Telling Stories with Data - 12 Linear models
…
sim_run_data

# A tibble: 200 × 2
   five_km_time marathon_time
          <dbl>         <dbl>
 1         20.4          164.
 2         16.8          158 
 3         22.3          196.
 4         19.7          160.
 5         15.6          121.
 6         21.1          178.
 7         17            157.
 8         18.6          169.
 9         17.4          150.
10         17.8          126.
# … with 190 more rows
…
sim_run_data

# A tibble: 200 × 3
   five_km_time marathon_time was_raining
          <dbl>         <dbl> <chr>      
 1         20.4          164. No         
 2         16.8          168  Yes        
 3         22.3          196. No         
 4         19.7          160. No         
 5         15.6          121. No         
 6         21.1          178. No         
 7         17            157. No         
 8         18.6          169. No         
 9         17.4          160. Yes        
10         17.8          126. No         
# … with 190 more rows
…
sim_run_data

# A tibble: 200 × 5
   five_km_time marathon_time was_raining humidity weather_conditions
          <dbl>         <dbl> <chr>       <chr>    <chr>             
 1         20.4          164. No          Low      No rain, not humid
 2         16.8          168  Yes         Low      Rain, not humid   
 3         22.3          211. No          High     No rain, humid    
 4         19.7          175. No          High     No rain, humid    
 5         15.6          136. No          High     No rain, humid    
 6         21.1          178. No          Low      No rain, not humid
 7         17            172. No          High     No rain, humid    
 8         18.6          184. No          High     No rain, humid    
 9         17.4          160. Yes         Low      Rain, not humid   
10         17.8          126. No          Low      No rain, not humid
# … with 190 more rows
…
