Telling Stories with Data - 12 Store and share
…
number_of_draws <- 1000000

some_data <- 
  tibble(
    first = runif(n = number_of_draws),
    second = sample(x = LETTERS, size = number_of_draws, replace = TRUE)
  )

tic("CSV")
write_csv(x = some_data,
          file = "some_data.csv")
read_csv(file = "some_data.csv")

# A tibble: 1,000,000 × 2
    first second
    <dbl> <chr> 
 1 0.378  K     
 2 0.223  M     
 3 0.214  K     
 4 0.0584 T     
 5 0.317  T     
 6 0.816  K     
 7 0.0710 R     
 8 0.596  H     
 9 0.210  V     
10 0.253  Y     
# … with 999,990 more rows

toc()

CSV: 0.31 sec elapsed

tic("parquet")
write_parquet(x = some_data,
              sink = "some_data.parquet")
read_parquet(file = "some_data.parquet")

# A tibble: 1,000,000 × 2
    first second
    <dbl> <chr> 
 1 0.378  K     
 2 0.223  M     
 3 0.214  K     
 4 0.0584 T     
 5 0.317  T     
 6 0.816  K     
 7 0.0710 R     
 8 0.596  H     
 9 0.210  V     
10 0.253  Y     
# … with 999,990 more rows
…
