Telling Stories with Data - 13 Exploratory data analysis
…
In this case we have many missing values in ‘bound’ and two in ‘line’. For these known-unknowns, we are interested in whether the they are missing at random. We want to, ideally, show that data happened to just drop out. This is unlikely, and so we are usually trying to look at what is systematic about how our data are missing.

Sometime data happen to be duplicated. If we did not notice this then our analysis would be wrong in ways that we’d not be able to consistently expect. There are a variety of ways to look for duplicated rows, but get_dupes() from janitor (Firke 2020) is especially useful.

get_dupes(all_2020_ttc_data)

No variable names specified - using all columns.

# A tibble: 37 × 11
   date                time   day    station code  min_delay min_gap bound line 
   <dttm>              <time> <chr>  <chr>   <chr>     <dbl>   <dbl> <chr> <chr>
 1 2020-02-10 00:00:00 06:00  Monday TORONT… MRO           0       0 <NA>  SRT  
 2 2020-02-10 00:00:00 06:00  Monday TORONT… MRO           0       0 <NA>  SRT  
 3 2020-02-10 00:00:00 06:00  Monday TORONT… MUO           0       0 <NA>  SHP  
 4 2020-02-10 00:00:00 06:00  Monday TORONT… MUO           0       0 <NA>  SHP  
 5 2020-03-10 00:00:00 23:00  Tuesd… YORK M… MUO           0       0 <NA>  YU   
 6 2020-03-10 00:00:00 23:00  Tuesd… YORK M… MUO           0       0 <NA>  YU   
 7 2020-03-26 00:00:00 13:20  Thurs… VAUGHA… MUNOA         3       6 S     YU   
 8 2020-03-26 00:00:00 13:20  Thurs… VAUGHA… MUNOA         3       6 S     YU   
 9 2020-03-26 00:00:00 18:32  Thurs… VAUGHA… MUNOA         3       6 S     YU   
10 2020-03-26 00:00:00 18:32  Thurs… VAUGHA… MUNOA         3       6 S     YU   
# … with 27 more rows, and 2 more variables: vehicle <dbl>, dupe_count <int>
…
And so we can see that the 450 minute delay was due to ‘Transit Control Related Problems’, the 446 minute delay was due to ‘Miscellaneous Other’, they seem to be outliers, even among the outliers.

all_2020_ttc_data |> 
  left_join(delay_codes |> 
              rename(code = sub_rmenu_code, code_desc = code_description_3) |>
              select(code, code_desc)) |> 
  arrange(-min_delay) |> 
  select(date, time, station, line, min_delay, code, code_desc)

Joining, by = c("code", "code_desc")

# A tibble: 14,335 × 7
   date                time   station            line  min_delay code  code_desc
   <dttm>              <time> <chr>              <chr>     <dbl> <chr> <chr>    
 1 2020-02-13 00:00:00 05:30  ST GEORGE YUS STA… YU          450 TUCC  Transit …
 2 2020-05-08 00:00:00 16:16  ST CLAIR STATION   YU          446 MUO   Miscella…
 3 2020-01-22 00:00:00 05:57  KEELE STATION      BD          258 EUTR  Trucks   
 4 2020-03-19 00:00:00 11:26  ROYAL YORK STATION BD          221 MUPR1 Priority…
 5 2020-11-12 00:00:00 23:10  SHEPPARD STATION   YU          197 PUCSC Signal C…
 6 2020-12-13 00:00:00 21:37  MCCOWAN STATION    SRT         167 PRSP  <NA>     
 7 2020-12-04 00:00:00 16:23  MCCOWAN STATION    SRT         165 PRSP  <NA>     
 8 2020-01-18 00:00:00 05:48  SCARBOROUGH RAPID… SRT         162 PRSL  <NA>     
 9 2020-02-22 00:00:00 05:16  SPADINA TO OSGOODE YU          159 PUSWZ Work Zon…
10 2020-09-03 00:00:00 14:35  CASTLE FRANK STAT… BD          150 MUPR1 Priority…
# … with 14,325 more rows
…
We could also plot the factor loadings. We see some evidence that perhaps one is to do with the public, compared with another to do with the operator.

df_out_r <- as_tibble(delay_pca$rotation)
df_out_r$feature <- colnames(dwide[,3:ncol(dwide)])

df_out_r

# A tibble: 30 × 31
        PC1    PC2      PC3      PC4      PC5     PC6      PC7      PC8     PC9
      <dbl>  <dbl>    <dbl>    <dbl>    <dbl>   <dbl>    <dbl>    <dbl>   <dbl>
 1 -0.0279  0.125  -0.0576   0.0679  -0.0133   0.0307 -0.00449  0.134   -0.0472
 2 -0.108   0.343  -0.150    0.205   -0.100    0.317  -0.116    0.252   -0.407 
 3 -0.0196  0.0604 -0.0207   0.0195   0.0189   0.0574 -0.0803  -0.0467  -0.146 
 4 -0.0244  0.0752 -0.0325  -0.0237   0.00121 -0.0263 -0.0137   0.0251   0.104 
 5 -0.0128  0.0113 -0.00340 -0.00977 -0.0255   0.0186 -0.0645  -0.0552  -0.0302
 6 -0.231   0.650  -0.309    0.245    0.222   -0.309   0.172   -0.0711   0.363 
 7 -0.0871  0.233  -0.0904  -0.692   -0.311   -0.414  -0.216    0.00703 -0.116 
 8 -0.00377 0.0193 -0.00201 -0.0140  -0.0424   0.0751 -0.146   -0.0712  -0.0203
 9 -0.0167  0.120  -0.0367  -0.578    0.336    0.563   0.207    0.226    0.289 
10 -0.0708  0.276  -0.118    0.116   -0.368    0.435  -0.178    0.0583  -0.0173
# … with 20 more rows, and 22 more variables: PC10 <dbl>, PC11 <dbl>,
#   PC12 <dbl>, PC13 <dbl>, PC14 <dbl>, PC15 <dbl>, PC16 <dbl>, PC17 <dbl>,
#   PC18 <dbl>, PC19 <dbl>, PC20 <dbl>, PC21 <dbl>, PC22 <dbl>, PC23 <dbl>,
#   PC24 <dbl>, PC25 <dbl>, PC26 <dbl>, PC27 <dbl>, PC28 <dbl>, PC29 <dbl>,
#   PC30 <dbl>, feature <chr>
…
airbnb_data_selected

# A tibble: 18,265 × 21
   host_id host_since host_response_time host_is_superhost host_listings_count
     <dbl> <date>     <chr>              <lgl>                           <dbl>
 1    1565 2008-08-08 N/A                FALSE                               1
 2   22795 2009-06-22 N/A                FALSE                               2
 3   48239 2009-10-25 N/A                FALSE                               1
 4   93825 2010-03-15 N/A                FALSE                               2
 5  118124 2010-05-04 within a day       FALSE                               1
 6   22795 2009-06-22 N/A                FALSE                               2
 7  174063 2010-07-20 within an hour     TRUE                                3
 8  183071 2010-07-28 within an hour     TRUE                                2
 9  187320 2010-08-01 within a few hours TRUE                               13
10  192364 2010-08-05 N/A                FALSE                               1
# … with 18,255 more rows, and 16 more variables:
#   host_total_listings_count <dbl>, host_neighbourhood <chr>,
#   neighbourhood_cleansed <chr>, room_type <chr>, bathrooms <lgl>,
#   bedrooms <dbl>, price <chr>, number_of_reviews <dbl>,
#   has_availability <lgl>, review_scores_rating <dbl>,
#   review_scores_accuracy <dbl>, review_scores_cleanliness <dbl>,
#   review_scores_checkin <dbl>, review_scores_communication <dbl>, …
First we might be interested in price. It is a character at the moment and so we need to convert it to a numeric. This is a common problem, and we need to be a little careful that it does not all just convert to NAs. In our case if we just force the price data to be a numeric then it will go to NA because there are a lot of characters where it is unclear what the numeric equivalent is, such as ‘$’. So we need to remove those characters first.

airbnb_data_selected$price |> head()

[1] "$469.00" "$96.00"  "$64.00"  "$70.00"  "$45.00"  "$127.00"

airbnb_data_selected$price |> str_split("") |> unlist() |> unique()

 [1] "$" "4" "6" "9" "." "0" "7" "5" "1" "2" "3" "8" ","

airbnb_data_selected |> 
  select(price) |> 
  filter(str_detect(price, ","))

# A tibble: 145 × 1
   price    
   <chr>    
 1 $1,724.00
 2 $1,000.00
 3 $1,100.00
 4 $1,450.00
 5 $1,019.00
 6 $1,000.00
 7 $1,300.00
 8 $2,142.00
 9 $2,000.00
10 $1,200.00
# … with 135 more rows
…
