Telling Stories with Data - 13 Generalized linear models
…
set.seed(853)

week_or_weekday <-
  tibble(
    number_of_cars = runif(n = 1000, min = 0, max = 100),
    noise = rnorm(n = 1000, mean = 0, sd = 10),
    is_weekday = if_else(number_of_cars + noise > 50, 1, 0)
  ) |>
  mutate(number_of_cars = round(number_of_cars)) |>
  select(-noise)

week_or_weekday

# A tibble: 1,000 × 2
   number_of_cars is_weekday
            <dbl>      <dbl>
 1             36          0
 2             12          0
 3             48          1
 4             32          0
 5              4          0
 6             40          0
 7             13          0
 8             24          0
 9             16          0
10             19          0
# ℹ 990 more rows
…
The results of the estimation are in the first column of Table 13.2. The estimated coefficient on the number of cars is 0.19.

The interpretation of the logistic regression’s coefficients is more complicated than linear regression as they relate to changes in the log-odds of the binary outcome. For instance, the estimate of 0.19 is the average change in the log odds of it being a weekday with observing one extra car on the road. The coefficient is positive which means an increase, but as it is non-linear, if we want to specify a particular change, then this will be different for different baseline levels of the observation (e.g. an increase of 0.19 log odds has a larger impact when the baseline log odds are 0, compared to 2).

We can translate our estimate into the probability of it being a weekday, for a given number of cars. predictions() from marginaleffects (Arel-Bundock 2022) can be used to add the implied probability that it is a weekday for each observation.

library(marginaleffects)

week_or_weekday_predictions <-
  predictions(week_or_weekday_model) |>
  as_tibble()

week_or_weekday_predictions

# A tibble: 1,000 × 7
   rowid estimate  p.value  conf.low conf.high is_weekday number_of_cars
   <int>    <dbl>    <dbl>     <dbl>     <dbl>      <dbl>          <dbl>
 1     1 0.0566   1.64e-28 0.0352     0.0898            0             36
 2     2 0.000631 1.77e-37 0.000204   0.00195           0             12
 3     3 0.369    1.62e- 4 0.307      0.436             1             48
 4     4 0.0273   7.44e-32 0.0152     0.0485            0             32
 5     5 0.000138 3.81e-38 0.0000359  0.000533          0              4
 6     6 0.114    4.56e-23 0.0786     0.161             0             40
 7     7 0.000763 2.28e-37 0.000254   0.00229           0             13
 8     8 0.00612  2.37e-35 0.00275    0.0136            0             24
 9     9 0.00135  5.56e-37 0.000486   0.00372           0             16
10    10 0.00238  1.71e-36 0.000932   0.00605           0             19
# ℹ 990 more rows
…
us_political_preferences

# A tibble: 1,000 × 3
   education gender supports_biden
       <int>  <int> <chr>         
 1         1      2 no            
 2         2      2 yes           
 3         4      2 no            
 4         5      1 yes           
 5         1      1 no            
 6         4      1 yes           
 7         3      2 yes           
 8         1      2 yes           
 9         5      1 no            
10         5      1 yes           
# ℹ 990 more rows
…
ces2020 <-
  read_csv(
    "ces2020.csv",
    col_types =
      cols(
        "votereg" = col_integer(),
        "CC20_410" = col_integer(),
        "gender" = col_integer(),
        "educ" = col_integer()
      )
  )

ces2020

# A tibble: 61,000 × 4
   votereg CC20_410 gender  educ
     <int>    <int>  <int> <int>
 1       1        2      1     4
 2       2       NA      2     6
 3       1        1      2     5
 4       1        1      2     5
 5       1        4      1     5
 6       1        2      1     3
 7       2       NA      1     3
 8       1        2      2     3
 9       1        2      2     2
10       1        1      2     5
# ℹ 60,990 more rows
…
count_of_A

# A tibble: 78 × 3
   department course  number_of_A
   <chr>      <chr>         <int>
 1 1          DEP_1_a           4
 2 1          DEP_1_b           2
 3 1          DEP_1_c           5
 4 1          DEP_1_d           4
 5 1          DEP_1_e           1
 6 1          DEP_1_f           4
 7 1          DEP_1_g           3
 8 1          DEP_1_h           3
 9 1          DEP_1_i           3
10 1          DEP_1_j           3
# ℹ 68 more rows
…
write_csv(jane_eyre, "jane_eyre.csv")

We will download it and then use our local copy to avoid overly imposing on the Project Gutenberg servers.

jane_eyre <- read_csv(
  "jane_eyre.csv",
  col_types = cols(
    gutenberg_id = col_integer(),
    text = col_character()
  )
)

jane_eyre

# A tibble: 21,001 × 2
   gutenberg_id text                           
          <int> <chr>                          
 1         1260 JANE EYRE                      
 2         1260 AN AUTOBIOGRAPHY               
 3         1260 <NA>                           
 4         1260 by Charlotte Brontë            
 5         1260 <NA>                           
 6         1260 _ILLUSTRATED BY F. H. TOWNSEND_
 7         1260 <NA>                           
 8         1260 London                         
 9         1260 SERVICE & PATON                
10         1260 5 HENRIETTA STREET             
# ℹ 20,991 more rows
…
Figure 13.11: Sketches of the expected dataset and analysis for cause of death in Alberta

We will simulate a dataset of cause of death distributed following the negative binomial distribution.

alberta_death_simulation <-
  tibble(
    cause = rep(x = c("Heart", "Stroke", "Diabetes"), times = 10),
    year = rep(x = 2016:2018, times = 10),
    deaths = rnbinom(n = 30, size = 20, prob = 0.1)
  )

alberta_death_simulation

# A tibble: 30 × 3
   cause     year deaths
   <chr>    <int>  <int>
 1 Heart     2016    160
 2 Stroke    2017    179
 3 Diabetes  2018    162
 4 Heart     2016    199
 5 Stroke    2017    206
 6 Diabetes  2018    222
 7 Heart     2016    222
 8 Stroke    2017    166
 9 Diabetes  2018    147
10 Heart     2016    151
# ℹ 20 more rows
…
