Telling Stories with Data - 15 Causality from observational data
…
department_two <-
  tibble(
    undergrad = runif(n = number_in_each, min = 0.6, max = 0.8),
    noise = rnorm(n = number_in_each, 0, sd = 0.1),
    grad = undergrad + noise + 0.3,
    type = "Department 2"
  )

both_departments <- rbind(department_one, department_two)

both_departments

# A tibble: 2,000 × 4
   undergrad   noise  grad type        
       <dbl>   <dbl> <dbl> <chr>       
 1     0.772 -0.0566 0.715 Department 1
 2     0.724 -0.0312 0.693 Department 1
 3     0.797  0.0770 0.874 Department 1
 4     0.763 -0.0664 0.697 Department 1
 5     0.707  0.0717 0.779 Department 1
 6     0.781 -0.0165 0.764 Department 1
 7     0.726 -0.104  0.623 Department 1
 8     0.749  0.0527 0.801 Department 1
 9     0.732 -0.0471 0.684 Department 1
10     0.738  0.0552 0.793 Department 1
# ℹ 1,990 more rows
…
simulated_diff_in_diff <-
  simulated_diff_in_diff |>
  rowwise() |>
  mutate(
    serve_speed = case_when(
      time == 0 & treat_group == 0 ~ rnorm(n = 1, mean = 5, sd = 1),
      time == 1 & treat_group == 0 ~ rnorm(n = 1, mean = 6, sd = 1),
      time == 0 & treat_group == 1 ~ rnorm(n = 1, mean = 8, sd = 1),
      time == 1 & treat_group == 1 ~ rnorm(n = 1, mean = 14, sd = 1)
    )
  )

simulated_diff_in_diff

# A tibble: 2,000 × 4
# Rowwise: 
   person time  treat_group serve_speed
    <int> <fct> <fct>             <dbl>
 1      1 0     0                  4.43
 2      2 0     1                  6.96
 3      3 0     1                  7.77
 4      4 0     0                  5.31
 5      5 0     0                  4.09
 6      6 0     0                  4.85
 7      7 0     0                  6.43
 8      8 0     0                  5.77
 9      9 0     1                  6.13
10     10 0     1                  7.32
# ℹ 1,990 more rows
…
We focus just on the headline difference-in-differences result and construct summary statistics.

newspapers <-
  newspapers |>
  select(
    year, id_news, after_national, local, national, ra_cst, ps_cst, qtotal
    ) |> 
  mutate(ra_cst_div_qtotal = ra_cst / qtotal, 
         across(c(id_news, after_national, local, national), as.factor),
         year = as.integer(year))

newspapers

# A tibble: 1,196 × 9
    year id_news after_national local national    ra_cst ps_cst  qtotal
   <int> <fct>   <fct>          <fct> <fct>        <dbl>  <dbl>   <dbl>
 1  1960 1       0              1     0         52890272   2.29  94478.
 2  1961 1       0              1     0         56601060   2.20  96289.
 3  1962 1       0              1     0         64840752   2.13  97313.
 4  1963 1       0              1     0         70582944   2.43 101068.
 5  1964 1       0              1     0         74977888   2.35 102103.
 6  1965 1       0              1     0         74438248   2.29 105169.
 7  1966 1       0              1     0         81383000   2.31 126235.
 8  1967 1       0              1     0         80263152   2.88 128667.
 9  1968 1       0              1     0         87165704   3.45 131824.
10  1969 1       0              1     0        102596384   3.28 132417.
# ℹ 1,186 more rows
# ℹ 1 more variable: ra_cst_div_qtotal <dbl>
…
purchase_data

# A tibble: 10,000 × 4
   unique_person_id   age gender income
              <int> <int> <chr>   <dbl>
 1                1    26 Male    68637
 2                2    81 Female  71486
 3                3    34 Male    75652
 4                4    46 Male    68068
 5                5   100 Female  73206
 6                6    20 Male    41872
 7                7    50 Female  75957
 8                8    36 Female  56566
 9                9    72 Male    54621
10               10    52 Female  40722
# ℹ 9,990 more rows
…
purchase_data <-
  purchase_data |>
  mutate(
    noise = rnorm(n = nrow(purchase_data), mean = 5, sd = 2),
    spend = income / 1000 + noise,
    spend = if_else(free_shipping == 1, spend + 10, spend),
    spend = as.integer(spend)
    ) |>
  select(-noise) |>
  mutate(across(c(gender, free_shipping), as.factor))

purchase_data

# A tibble: 10,000 × 6
   unique_person_id   age gender income free_shipping spend
              <int> <int> <fct>   <dbl> <fct>         <int>
 1                1    26 Male    68637 0                72
 2                2    81 Female  71486 0                73
 3                3    34 Male    75652 0                80
 4                4    46 Male    68068 0                75
 5                5   100 Female  73206 0                78
 6                6    20 Male    41872 0                45
 7                7    50 Female  75957 0                78
 8                8    36 Female  56566 0                62
 9                9    72 Male    54621 0                55
10               10    52 Female  40722 0                47
# ℹ 9,990 more rows
…
matched_groups

A matchit object
 - method: 1:1 nearest neighbor matching without replacement
 - distance: Propensity score
             - estimated with logistic regression
 - number of obs.: 10000 (original), 508 (matched)
 - target estimand: ATT
 - covariates: age, gender, income

matched_dataset <- match.data(matched_groups)

matched_dataset

# A tibble: 508 × 9
   unique_person_id   age gender     income free_shipping spend distance weights
              <int> <int> <fct>       <dbl> <fct>         <int>    <dbl>   <dbl>
 1               23    28 Female      65685 1                79  0.0334        1
 2               24    67 Male        71150 0                76  0.0220        1
 3               32    22 Female      86071 0                92  0.131         1
 4               48    66 Female     100105 0               108  0.0473        1
 5               59    25 Male        55548 1                68  0.0541        1
 6               82    66 Male        70721 0                75  0.0224        1
 7               83    58 Male        83443 0                88  0.0651        1
 8               87    46 Male        59073 1                73  0.0271        1
 9              119    89 Other/dec…  72284 0                74  0.00301       1
10              125    51 Female      81164 1                96  0.0303        1
# ℹ 498 more rows
# ℹ 1 more variable: subclass <fct>
…
## Make income more likely to be higher if mark at least 80
rdd_example_data <-
  rdd_example_data |>
  mutate(
    noise = rnorm(n = num_observations, mean = 2, sd = 1),
    income = if_else(mark >= 80, income + noise, income)
  )

rdd_example_data

# A tibble: 1,000 × 4
   person  mark income noise
    <int> <dbl>  <dbl> <dbl>
 1      1  79.4   9.43 1.87 
 2      2  78.5   9.69 2.26 
 3      3  79.9  10.8  1.14 
 4      4  79.3   9.34 2.50 
 5      5  78.1  10.7  2.21 
 6      6  79.6   9.83 2.47 
 7      7  78.5   8.96 4.22 
 8      8  79.0  10.5  3.11 
 9      9  78.6   9.53 0.671
10     10  78.8  10.6  2.46 
# ℹ 990 more rows
…
iv_example_data

# A tibble: 10,000 × 5
   person smoker  health province      tax
    <int>  <int>   <dbl> <chr>       <dbl>
 1      1      0  1.11   Alberta       0.3
 2      2      1 -0.0831 Alberta       0.3
 3      3      1 -0.0363 Alberta       0.3
 4      4      0  2.48   Alberta       0.3
 5      5      0  0.617  Nova Scotia   0.5
 6      6      0  0.748  Alberta       0.3
 7      7      0  0.499  Alberta       0.3
 8      8      0  1.05   Nova Scotia   0.5
 9      9      1  0.113  Alberta       0.3
10     10      1 -0.0105 Alberta       0.3
# ℹ 9,990 more rows
…
