Telling Stories with Data - 14 Linear models
…
sim_run_data

# A tibble: 200 × 2
   five_km_time marathon_time
          <dbl>         <dbl>
 1         20.4          164.
 2         16.8          158 
 3         22.3          196.
 4         19.7          160.
 5         15.6          121.
 6         21.1          178.
 7         17            157.
 8         18.6          169.
 9         17.4          150.
10         17.8          126.
# … with 190 more rows
…
sim_run_data

# A tibble: 200 × 3
   five_km_time marathon_time was_raining
          <dbl>         <dbl> <chr>      
 1         20.4          164. No         
 2         16.8          163  Yes        
 3         22.3          196. No         
 4         19.7          160. No         
 5         15.6          121. No         
 6         21.1          178. No         
 7         17            157. No         
 8         18.6          169. No         
 9         17.4          155. Yes        
10         17.8          126. No         
# … with 190 more rows
…
sim_run_data

# A tibble: 200 × 5
   five_km_time marathon_time was_raining humidity weather_conditions
          <dbl>         <dbl> <chr>       <chr>    <chr>             
 1         20.4          164. No          Low      No rain, not humid
 2         16.8          163  Yes         Low      Rain, not humid   
 3         22.3          198. No          High     No rain, humid    
 4         19.7          162. No          High     No rain, humid    
 5         15.6          123. No          High     No rain, humid    
 6         21.1          178. No          Low      No rain, not humid
 7         17            159. No          High     No rain, humid    
 8         18.6          171. No          High     No rain, humid    
 9         17.4          155. Yes         Low      Rain, not humid   
10         17.8          126. No          Low      No rain, not humid
# … with 190 more rows
…
set.seed(853)

week_or_weekday <-
  tibble(
    number_of_cars = runif(n = 1000, min = 0, 100),
    noise = rnorm(n = 1000, mean = 0, sd = 10),
    is_weekday = if_else(number_of_cars + noise > 50, 1, 0)
  ) |>
  mutate(number_of_cars = round(number_of_cars)) |>
  select(-noise)

week_or_weekday

# A tibble: 1,000 × 2
   number_of_cars is_weekday
            <dbl>      <dbl>
 1             36          0
 2             12          0
 3             48          1
 4             32          0
 5              4          0
 6             40          0
 7             13          0
 8             24          0
 9             16          0
10             19          0
# … with 990 more rows
…
The results of the estimation are in the first column of Table 14.6. The estimated coefficient on the number of cars is 0.19.

One reason that logistic regression can be a bit tricky initially is because the coefficients take a bit of work to interpret. The estimate of 0.19 is the average change in the log odds of our observation being a weekday with one extra car. The coefficient is positive which means an increase, but as it is non-linear, if we want a particular change, then this will be different for different observations.

We can translate our estimate into the probability of it being a weekday, for a given number of cars. predictions() from marginaleffects (Arel-Bundock 2022) can be used to add the implied probability that it is a weekday for each observation.

library(marginaleffects)

week_or_weekday_predictions <-
  predictions(week_or_weekday_model) |>
  as_tibble()

week_or_weekday_predictions

# A tibble: 1,000 × 8
   rowid type     predicted std.error  conf.low conf.high is_weekday number_of…¹
   <int> <chr>        <dbl>     <dbl>     <dbl>     <dbl>      <dbl>       <dbl>
 1     1 response  0.0566   0.0136    0.0352     0.0898            0          36
 2     2 response  0.000631 0.000363  0.000204   0.00195           0          12
 3     3 response  0.369    0.0331    0.307      0.436             1          48
 4     4 response  0.0273   0.00808   0.0152     0.0485            0          32
 5     5 response  0.000138 0.0000952 0.0000359  0.000533          0           4
 6     6 response  0.114    0.0209    0.0786     0.161             0          40
 7     7 response  0.000763 0.000428  0.000254   0.00229           0          13
 8     8 response  0.00612  0.00249   0.00275    0.0136            0          24
 9     9 response  0.00135  0.000700  0.000486   0.00372           0          16
10    10 response  0.00238  0.00114   0.000932   0.00605           0          19
# … with 990 more rows, and abbreviated variable name ¹​number_of_cars
…
us_political_preferences

# A tibble: 1,000 × 3
   education gender supports_biden
       <int>  <int> <chr>         
 1         4      2 yes           
 2         1      1 yes           
 3         5      2 yes           
 4         2      1 yes           
 5         3      2 yes           
 6         2      1 yes           
 7         5      2 yes           
 8         4      2 yes           
 9         1      2 yes           
10         4      1 no            
# … with 990 more rows
…
ces2020 <-
  read_csv(
    "ces2020.csv",
    col_types =
      cols(
        "votereg" = col_integer(),
        "CC20_410" = col_integer(),
        "gender" = col_integer(),
        "educ" = col_integer()
      )
  )

ces2020

# A tibble: 61,000 × 4
   votereg CC20_410 gender  educ
     <int>    <int>  <int> <int>
 1       1        2      1     4
 2       2       NA      2     6
 3       1        1      2     5
 4       1        1      2     5
 5       1        4      1     5
 6       1        2      1     3
 7       2       NA      1     3
 8       1        2      2     3
 9       1        2      2     2
10       1        1      2     5
# … with 60,990 more rows
…
count_of_A

# A tibble: 78 × 3
   department course  number_of_A
   <chr>      <chr>         <int>
 1 1          DEP_1_a           4
 2 1          DEP_1_b           2
 3 1          DEP_1_c           5
 4 1          DEP_1_d           4
 5 1          DEP_1_e           1
 6 1          DEP_1_f           4
 7 1          DEP_1_g           3
 8 1          DEP_1_h           3
 9 1          DEP_1_i           3
10 1          DEP_1_j           3
# … with 68 more rows
…
write_csv(jane_eyre, "jane_eyre.csv")

We will download it and then use our local copy to avoid overly imposing on the Project Gutenberg servers.

jane_eyre <- read_csv(
  "jane_eyre.csv",
  col_types = cols(
    gutenberg_id = col_integer(),
    text = col_character()
  )
)

jane_eyre

# A tibble: 21,001 × 2
   gutenberg_id text                           
          <int> <chr>                          
 1         1260 JANE EYRE                      
 2         1260 AN AUTOBIOGRAPHY               
 3         1260 <NA>                           
 4         1260 by Charlotte Brontë            
 5         1260 <NA>                           
 6         1260 _ILLUSTRATED BY F. H. TOWNSEND_
 7         1260 <NA>                           
 8         1260 London                         
 9         1260 SERVICE & PATON                
10         1260 5 HENRIETTA STREET             
# … with 20,991 more rows
…
Figure 14.18: Sketches of the expected dataset and analysis for cause of death in Alberta

We will simulate a dataset of cause of death distributed following the negative binomial distribution.

alberta_death_simulation <-
  tibble(
    cause = rep(x = c("Heart", "Stroke", "Diabetes"), times = 10),
    year = rep(x = 2016:2018, times = 10),
    deaths = rnbinom(n = 30, size = 20, prob = 0.1)
    )

alberta_death_simulation

# A tibble: 30 × 3
   cause     year deaths
   <chr>    <int>  <int>
 1 Heart     2016    168
 2 Stroke    2017    152
 3 Diabetes  2018    200
 4 Heart     2016    111
 5 Stroke    2017    206
 6 Diabetes  2018    126
 7 Heart     2016    105
 8 Stroke    2017    232
 9 Diabetes  2018    201
10 Heart     2016    150
# … with 20 more rows
…
