Telling Stories with Data - 15 Causality from observational data
…
department_two <-
  tibble(
    undergrad = runif(n = number_in_each, min = 0.6, max = 0.8),
    noise = rnorm(n = number_in_each, 0, sd = 0.1),
    grad = undergrad + noise + 0.3,
    type = "Department 2"
  )

both_departments <- rbind(department_one, department_two)

both_departments

# A tibble: 2,000 × 4
   undergrad   noise  grad type        
       <dbl>   <dbl> <dbl> <chr>       
 1     0.772 -0.0566 0.715 Department 1
 2     0.724 -0.0312 0.693 Department 1
 3     0.797  0.0770 0.874 Department 1
 4     0.763 -0.0664 0.697 Department 1
 5     0.707  0.0717 0.779 Department 1
 6     0.781 -0.0165 0.764 Department 1
 7     0.726 -0.104  0.623 Department 1
 8     0.749  0.0527 0.801 Department 1
 9     0.732 -0.0471 0.684 Department 1
10     0.738  0.0552 0.793 Department 1
# … with 1,990 more rows
# ℹ Use `print(n = ...)` to see more rows
…
general_public <-
  tibble(
    VO2 = runif(n = number_of_public, min = 0.6, max = 0.8),
    noise = rnorm(n = number_of_public, 0, sd = 0.03),
    chance_of_winning = VO2 + noise + 0.1,
    type = "Public"
  ) |>
  select(-noise)

professionals_and_public <- rbind(professionals, general_public)

professionals_and_public

# A tibble: 1,100 × 3
     VO2 chance_of_winning type         
   <dbl>             <dbl> <chr>        
 1 0.772             0.734 Professionals
 2 0.724             0.773 Professionals
 3 0.797             0.772 Professionals
 4 0.763             0.754 Professionals
 5 0.707             0.843 Professionals
 6 0.781             0.740 Professionals
 7 0.726             0.803 Professionals
 8 0.749             0.750 Professionals
 9 0.732             0.890 Professionals
10 0.738             0.821 Professionals
# … with 1,090 more rows
# ℹ Use `print(n = ...)` to see more rows
…
simulated_difference_in_differences <-
  simulated_difference_in_differences |>
  rowwise() |>
  mutate(
    serve_speed = case_when(
      time == 0 & treatment_group == 0 ~ rnorm(n = 1, mean = 5, sd = 1),
      time == 1 & treatment_group == 0 ~ rnorm(n = 1, mean = 6, sd = 1),
      time == 0 & treatment_group == 1 ~ rnorm(n = 1, mean = 8, sd = 1),
      time == 1 & treatment_group == 1 ~ rnorm(n = 1, mean = 14, sd = 1)
    )
  )

simulated_difference_in_differences

# A tibble: 2,000 × 4
# Rowwise: 
   person time  treatment_group serve_speed
    <int> <fct> <fct>                 <dbl>
 1      1 0     0                      4.43
 2      2 0     1                      6.96
 3      3 0     1                      7.77
 4      4 0     0                      5.31
 5      5 0     0                      4.09
 6      6 0     0                      4.85
 7      7 0     0                      6.43
 8      8 0     0                      5.77
 9      9 0     1                      6.13
10     10 0     1                      7.32
# … with 1,990 more rows
# ℹ Use `print(n = ...)` to see more rows
…
We can get free access to the data that underpins Angelucci and Cagé (2019) after registration. The dataset is in the Stata data format, ‘dta’, which we can read with read_dta() from haven (Wickham and Miller 2020). The file that we are interested in is ‘Angelucci_Cage_AEJMicro_dataset.dta’, which is the ‘dta’ folder.

library(haven)

newspapers <- read_dta("Angelucci_Cage_AEJMicro_dataset.dta")

newspapers

# A tibble: 1,196 × 52
    year id_news local national after…¹   Had po_cst ps_cst etota…² ra_cst  ra_s
   <dbl>   <dbl> <dbl>    <dbl>   <dbl> <dbl>  <dbl>  <dbl>   <dbl>  <dbl> <dbl>
 1  1960       1     1        0       0     0   2.60   2.29  1.09e8 5.29e7  45.9
 2  1961       1     1        0       0     0   2.51   2.20  1.18e8 5.66e7  47.9
 3  1962       1     1        0       0     0   2.39   2.13  1.09e8 6.48e7  52.4
 4  1963       1     1        0       0     0   2.74   2.43  1.61e8 7.06e7  50.2
 5  1964       1     1        0       0     0   2.65   2.35  1.74e8 7.50e7  52.5
 6  1965       1     1        0       0     0   2.59   2.29  1.77e8 7.44e7  52.2
 7  1966       1     1        0       0     0   2.52   2.31  2.11e8 8.14e7  49.6
 8  1967       1     1        0       0     0   3.27   2.88  2.13e8 8.03e7  43.2
 9  1968       1     1        0       0     0   3.91   3.45  2.10e8 8.72e7  40.2
10  1969       1     1        0       0     0   3.67   3.28  2.39e8 1.03e8  45.7
# … with 1,186 more rows, 41 more variables: rs_cst <dbl>, rtotal_cst <dbl>,
#   profit_cst <dbl>, nb_journ <dbl>, qs_s <dbl>, qtotal <dbl>, pages <dbl>,
#   ads_q <dbl>, ads_s <dbl>, news_hole <dbl>, share_Hard <dbl>,
#   ads_p4_cst <dbl>, R_sh_edu_primaire_ipo <dbl>,
#   R_sh_edu_secondaire_ipo <dbl>, R_sh_edu_no_ipo <dbl>,
#   R_sh_pcs_agri_ipo <dbl>, R_sh_pcs_patron_ipo <dbl>,
#   R_sh_pcs_cadre_ipo <dbl>, R_sh_pcs_employes_ipo <dbl>, …
# ℹ Use `print(n = ...)` to see more rows, and `colnames()` to see all variable names
…
newspapers

# A tibble: 1,196 × 14
    year id_news after…¹ local natio…² ra_cst ads_p…³ ads_s ps_cst po_cst qtotal
   <int> <fct>   <fct>   <fct> <fct>    <dbl>   <dbl> <dbl>  <dbl>  <dbl>  <dbl>
 1  1960 1       0       1     0       5.29e7    NA    30.6   2.29   2.60 9.45e4
 2  1961 1       0       1     0       5.66e7    NA    38.4   2.20   2.51 9.63e4
 3  1962 1       0       1     0       6.48e7    24.0  31.6   2.13   2.39 9.73e4
 4  1963 1       0       1     0       7.06e7    50.3  27.2   2.43   2.74 1.01e5
 5  1964 1       0       1     0       7.50e7    48.6  31.1   2.35   2.65 1.02e5
 6  1965 1       0       1     0       7.44e7    47.5  47.8   2.29   2.59 1.05e5
 7  1966 1       0       1     0       8.14e7    46.2  29.7   2.31   2.52 1.26e5
 8  1967 1       0       1     0       8.03e7    87.9  49.4   2.88   3.27 1.29e5
 9  1968 1       0       1     0       8.72e7    84.1  26.9   3.45   3.91 1.32e5
10  1969 1       0       1     0       1.03e8    79.0  31.7   3.28   3.67 1.32e5
# … with 1,186 more rows, 3 more variables: qs_s <dbl>, rs_cst <dbl>,
#   ra_cst_div_qtotal <dbl>, and abbreviated variable names ¹​after_national,
#   ²​national, ³​ads_p4_cst
# ℹ Use `print(n = ...)` to see more rows, and `colnames()` to see all variable names
…
Finally, we need to have some measure of a person’s average spend. We want those with free shipping to be slightly higher than those without.

purchase_data <-
  purchase_data |>
  mutate(mean_spend = if_else(free_shipping == 1, 60, 50)) |>
  rowwise() |>
  mutate(average_spend = rnorm(1, mean_spend, sd = 5)) |>
  ungroup() |>
  select(-mean_spend) |>
  mutate(across(c(city, gender, free_shipping), as.factor))

purchase_data

# A tibble: 10,000 × 7
   unique_person_id   age city     gender income free_shipping average_spend
              <int> <dbl> <fct>    <fct>   <dbl> <fct>                 <dbl>
 1                1  47.5 Calgary  Female  1.72  0                      41.1
 2                2  27.8 Montreal Male    1.54  0                      55.7
 3                3  57.7 Toronto  Female  3.16  0                      56.5
 4                4  43.9 Toronto  Male    0.636 0                      50.5
 5                5  21.1 Toronto  Female  1.43  0                      44.7
 6                6  51.1 Calgary  Male    1.18  0                      48.8
 7                7  28.7 Toronto  Female  1.49  0                      52.8
 8                8  37.9 Toronto  Female  0.414 0                      52.4
 9                9  31.0 Calgary  Male    0.384 0                      47.6
10               10  33.5 Montreal Female  1.11  0                      49.2
# … with 9,990 more rows
# ℹ Use `print(n = ...)` to see more rows
…
matched_groups

A matchit object
 - method: 1:1 nearest neighbor matching without replacement
 - distance: Propensity score
             - estimated with logistic regression
 - number of obs.: 10000 (original), 742 (matched)
 - target estimand: ATT
 - covariates: age, city, gender, income

matched_dataset <- match.data(matched_groups)

matched_dataset

# A tibble: 742 × 10
   unique_pe…¹   age city  gender income free_…² avera…³ dista…⁴ weights subcl…⁵
         <int> <dbl> <fct> <fct>   <dbl> <fct>     <dbl>   <dbl>   <dbl> <fct>  
 1           5  21.1 Toro… Female  1.43  0          44.7  0.141        1 278    
 2          20  30.0 Mont… Male    8.65  0          49.0  0.129        1 162    
 3          22  22.8 Toro… Male    0.898 0          50.1  0.282        1 334    
 4          38  41.3 Toro… Female  6.01  1          61.5  0.0779       1 120    
 5          43  24.7 Toro… Male    1.59  1          59.6  0.274        1 142    
 6          76  56.4 Toro… Male   15.0   0          51.8  0.199        1 290    
 7         102  48.1 Toro… Male    3.48  1          59.8  0.111        1 1      
 8         105  76.7 Toro… Male    2.84  0          45.1  0.0231       1 200    
 9         118  26.7 Toro… Female  0.315 0          56.4  0.0971       1 98     
10         143  36.3 Toro… Male   10.6   0          49.4  0.331        1 286    
# … with 732 more rows, and abbreviated variable names ¹​unique_person_id,
#   ²​free_shipping, ³​average_spend, ⁴​distance, ⁵​subclass
# ℹ Use `print(n = ...)` to see more rows
…
## Make income more likely to be higher if they have a mark at least 80
rdd_example_data <-
  rdd_example_data |>
  mutate(
    noise = rnorm(n = number_of_observation, mean = 2, sd = 1),
    income = if_else(mark >= 80, income + noise, income)
  )

rdd_example_data

# A tibble: 1,000 × 4
   person  mark income noise
    <int> <dbl>  <dbl> <dbl>
 1      1  79.4   9.43 1.87 
 2      2  78.5   9.69 2.26 
 3      3  79.9  10.8  1.14 
 4      4  79.3   9.34 2.50 
 5      5  78.1  10.7  2.21 
 6      6  79.6   9.83 2.47 
 7      7  78.5   8.96 4.22 
 8      8  79.0  10.5  3.11 
 9      9  78.6   9.53 0.671
10     10  78.8  10.6  2.46 
# … with 990 more rows
# ℹ Use `print(n = ...)` to see more rows
…
