Telling Stories with Data - 15 Multilevel regression with post-stratification
…
library(tidyverse)

set.seed(853)

political_support <-
  tibble(
    state = sample(1:50, size = 1000, replace = TRUE),
    age_group = sample(c(1, 15, 30, 45), size = 1000, replace = TRUE),
    noise = rnorm(n = 1000, mean = 0, sd = 10) |> round(),
    supports = if_else(state + age_group + noise > 50, 1, 0)
  )

political_support

# A tibble: 1,000 × 4
   state age_group noise supports
   <int>     <dbl> <dbl>    <dbl>
 1     9         1    11        0
 2    26        30     3        1
 3    29        45     7        1
 4    17        15    13        0
 5    37        45    11        1
 6    29        45     9        1
 7    50        45     3        1
 8    20        15     3        0
 9    19         1    -1        0
10     3        15     7        0
# ℹ 990 more rows
…
lines_by_author_work <-
  books |>
  group_by(author, title) |>
  summarise(number_of_lines = n())

lines_by_author_work

# A tibble: 125 × 3
   author            title                       number_of_lines
   <chr>             <chr>                                 <int>
 1 Austen, Jane      Emma                                  16488
 2 Austen, Jane      Lady Susan                             2525
 3 Austen, Jane      Love and Freindship [sic]              3401
 4 Austen, Jane      Mansfield Park                        15670
 5 Austen, Jane      Northanger Abbey                       7991
 6 Austen, Jane      Persuasion                             8353
 7 Austen, Jane      Pride and Prejudice                   14199
 8 Austen, Jane      Sense and Sensibility                 12673
 9 Brontë, Charlotte Jane Eyre: An Autobiography           21001
10 Brontë, Charlotte Shirley                               25520
# ℹ 115 more rows
…
# Tidy the class
poststrat_data <-
  poststrat_data |>
  mutate(across(c(gender, stateicp, education_level, age_group), as_factor))

# Save data
write_csv(poststrat_data, "outputs/data/us_poststrat.csv")

poststrat_data

# A tibble: 497,508 × 4
   gender age_group      education_level     stateicp
   <fct>  <fct>          <fct>               <fct>   
 1 female age_18-29      Some post sec       alabama 
 2 female age_60_or_more Some post sec       alabama 
 3 male   age_45-59      Some post sec       alabama 
 4 male   age_30-44      High school or less alabama 
 5 female age_60_or_more High school or less alabama 
 6 male   age_30-44      High school or less alabama 
 7 female age_30-44      Some post sec       alabama 
 8 male   age_18-29      Post sec +          alabama 
 9 female age_60_or_more High school or less alabama 
10 male   age_30-44      High school or less alabama 
# ℹ 497,498 more rows
…
And finally we add proportions for each of these cells.

poststrat_data_cells <-
  poststrat_data_cells |>
  group_by(stateicp) |>
  mutate(prop = n / sum(n)) |>
  ungroup()

poststrat_data_cells

# A tibble: 1,629 × 6
   stateicp    gender age_group      education_level         n    prop
   <fct>       <fct>  <fct>          <fct>               <int>   <dbl>
 1 connecticut male   age_18-29      Some post sec         149 0.0260 
 2 connecticut male   age_18-29      High school or less   232 0.0404 
 3 connecticut male   age_18-29      Post sec +             96 0.0167 
 4 connecticut male   age_18-29      Grad degree            25 0.00436
 5 connecticut male   age_60_or_more Some post sec         142 0.0248 
 6 connecticut male   age_60_or_more High school or less   371 0.0647 
 7 connecticut male   age_60_or_more Post sec +            226 0.0394 
 8 connecticut male   age_60_or_more Grad degree           210 0.0366 
 9 connecticut male   age_45-59      Some post sec         115 0.0200 
10 connecticut male   age_45-59      High school or less   265 0.0462 
# ℹ 1,619 more rows
…
