Telling Stories with Data - 16 Text as data
…
In that case, we knew what the tuples were. But it might be that we were not sure what the common tuples were in the corpus. We could use tokens_ngrams() to identify them. We could ask for, say, all bi-grams in an excerpt from Jane Eyre. We showed how to download the text of this book from Project Gutenberg in Chapter 13 and so here we load the local version that we saved earlier.

jane_eyre <- read_csv(
  "jane_eyre.csv",
  col_types = cols(
    gutenberg_id = col_integer(),
    text = col_character()
  )
)

jane_eyre

# A tibble: 21,001 × 2
   gutenberg_id text                           
          <int> <chr>                          
 1         1260 JANE EYRE                      
 2         1260 AN AUTOBIOGRAPHY               
 3         1260 <NA>                           
 4         1260 by Charlotte Brontë            
 5         1260 <NA>                           
 6         1260 _ILLUSTRATED BY F. H. TOWNSEND_
 7         1260 <NA>                           
 8         1260 London                         
 9         1260 SERVICE & PATON                
10         1260 5 HENRIETTA STREET             
# ℹ 20,991 more rows
…
16.2.6 Duplication

Duplication is a major concern with text datasets because of their size. For instance, Bandy and Vincent (2021) showed that around 30 per cent of the data were inappropriately duplicated in the BookCorpus dataset, and Schofield, Thompson, and Mimno (2017) show that this is a major concern and could substantially affect results. However, it can be a subtle and difficult to diagnose problem. For instance, in Chapter 13 when we considered counts of page numbers for various authors in the context of Poisson regression, we could easily have accidentally included each Shakespeare entry twice because not only are there entries for each play, but also many anthologies that contained all of them. Careful consideration of our dataset identified the issue, but that would be difficult at scale.

16.3 Term Frequency-Inverse Document Frequency (TF-IDF)

16.3.1 Distinguishing horoscopes

Install and load astrologer, which is a dataset of horoscopes to explore a real dataset.

We can then access the “horoscopes” dataset.

horoscopes

# A tibble: 1,272 × 4
   startdate  zodiacsign  horoscope                                        url  
   <date>     <fct>       <chr>                                            <chr>
 1 2015-01-05 Aries       Considering the fact that this past week (espec… http…
 2 2015-01-05 Taurus      It's time Taurus. You aren't one to be rushed a… http…
 3 2015-01-05 Gemini      Soon it will be time to review what you know, t… http…
 4 2015-01-05 Cancer      Feeling  feelings and being full of flavorful s… http…
 5 2015-01-05 Leo         Look, listen, watch, meditate and engage in pra… http…
 6 2015-01-05 Virgo       Last week's astrology is still reverberating th… http…
 7 2015-01-05 Libra       Get out your markers and your glue sticks. Get … http…
 8 2015-01-05 Scorpio     Time to pay extra attention to the needs of you… http…
 9 2015-01-05 Sagittarius Everything right now is about how you say it, h… http…
10 2015-01-05 Capricorn   The full moon on January 4th/5th was a healthy … http…
# ℹ 1,262 more rows
…
horoscopes_by_word <-
  horoscopes |>
  select(-startdate,-url) |>
  unnest_tokens(output = word,
                input = horoscope,
                token = "words")

horoscopes_counts_by_word <-
  horoscopes_by_word |>
  count(zodiacsign, word, sort = TRUE)

horoscopes_counts_by_word

# A tibble: 41,850 × 3
   zodiacsign  word      n
   <fct>       <chr> <int>
 1 Cancer      to     1440
 2 Sagittarius to     1377
 3 Aquarius    to     1357
 4 Aries       to     1335
 5 Pisces      to     1313
 6 Leo         to     1302
 7 Libra       to     1270
 8 Sagittarius you    1264
 9 Virgo       to     1262
10 Scorpio     to     1260
# ℹ 41,840 more rows
…
We can create this value using bind_tf_idf() from tidytext. It will create new variables for each of these measures.

horoscopes_counts_by_word_tf_idf <-
  horoscopes_counts_by_word |>
  bind_tf_idf(
    term = word,
    document = zodiacsign,
    n = n
  ) |>
  arrange(-tf_idf)

horoscopes_counts_by_word_tf_idf

# A tibble: 41,850 × 6
   zodiacsign  word            n       tf   idf   tf_idf
   <fct>       <chr>       <int>    <dbl> <dbl>    <dbl>
 1 Capricorn   goat            6 0.000236  2.48 0.000585
 2 Pisces      pisces         14 0.000531  1.10 0.000584
 3 Sagittarius sagittarius    10 0.000357  1.39 0.000495
 4 Cancer      cancer         10 0.000348  1.39 0.000483
 5 Gemini      gemini          7 0.000263  1.79 0.000472
 6 Taurus      bulls           5 0.000188  2.48 0.000467
 7 Aries       warns           5 0.000186  2.48 0.000463
 8 Cancer      organize        7 0.000244  1.79 0.000437
 9 Cancer      overwork        5 0.000174  2.48 0.000433
10 Taurus      let's          10 0.000376  1.10 0.000413
# ℹ 41,840 more rows
…
hansard_canada_2018

# A tibble: 33,105 × 6
    basepk speechdate speechtext          speakername speakerparty speakerriding
     <int> <date>     <chr>               <chr>       <chr>        <chr>        
 1 4732776 2018-01-29 "Mr. Speaker, I wo… Julie Dabr… Liberal      Toronto—Danf…
 2 4732777 2018-01-29 "Mr. Speaker, I wa… Matthew Du… New Democra… Beloeil—Cham…
 3 4732778 2018-01-29 "Mr. Speaker, I am… Stephanie … Conservative Calgary Midn…
 4 4732779 2018-01-29 "Resuming debate.\… Anthony Ro… Liberal      Nipissing—Ti…
 5 4732780 2018-01-29 "Mr. Speaker, we a… Alain Rayes Conservative Richmond—Art…
 6 4732781 2018-01-29 "The question is o… Anthony Ro… Liberal      Nipissing—Ti…
 7 4732782 2018-01-29 "Agreed.\n No."     Some hon. … <NA>         <NA>         
 8 4732783 2018-01-29 "All those in favo… Anthony Ro… Liberal      Nipissing—Ti…
 9 4732784 2018-01-29 "Yea."              Some hon. … <NA>         <NA>         
10 4732785 2018-01-29 "All those opposed… Anthony Ro… Liberal      Nipissing—Ti…
# ℹ 33,095 more rows
…
