Telling Stories with Data - 17 Text as data
…
17.2 TF-IDF

Inspired by Gelfand (2019) and following Amaka and Thomas (2021), we will draw on the dataset they put together of makeup names and descriptions from Sephora and Ulta. We are interested in the counts of each word. We can read in the data using read_csv().

library(tidyverse)

makeup <-
  read_csv(
    file =
      "https://raw.githubusercontent.com/the-pudding/data/master/foundation-names/allNumbers.csv"
  )

makeup

# A tibble: 3,117 × 9
   brand             product   name  speci…¹ light…² hex   light…³ numbers    id
   <chr>             <chr>     <chr> <chr>     <dbl> <chr> <lgl>     <dbl> <dbl>
 1 Makeup Revolution Conceal … <NA>  F0        0.949 #F2F… TRUE        0       1
 2 HOURGLASS         Veil Flu… Porc… No. 0     0.818 #F6D… TRUE        0       2
 3 TOM FORD          Traceles… Pearl 0.0       0.851 #F0D… TRUE        0       3
 4 Armani Beauty     Neo Nude… <NA>  0         0.912 #F0E… TRUE        0       4
 5 TOM FORD          Traceles… Pearl 0.0       0.912 #FDE… TRUE        0       5
 6 Charlotte Tilbury Magic Fo… <NA>  0         0.731 #D9A… TRUE        0       6
 7 Bobbi Brown       Skin Wei… Porc… 0         0.822 #F3C… TRUE        0       7
 8 Givenchy          Matissim… <NA>  N00       0.831 #F5D… TRUE        0       8
 9 Smashbox          Studio S… <NA>  0.1       0.814 #F8C… TRUE        0.1     9
10 Smashbox          Studio S… <NA>  0.1       0.910 #F9E… TRUE        0.1    10
# … with 3,107 more rows, and abbreviated variable names ¹​specific, ²​lightness,
#   ³​lightToDark
# ℹ Use `print(n = ...)` to see more rows
…
We can create this value using bind_tf_idf() from tidytext. It will create a bunch of new columns, one for each word and star combination.

makeup_by_words_tf_idf <-
  makeup_by_words |>
  bind_tf_idf(
    term = word,
    document = lightness_above_half,
    n = n
  ) |>
  arrange(-tf_idf)

makeup_by_words_tf_idf

# A tibble: 505 × 6
   lightness_above_half word        n       tf   idf   tf_idf
   <chr>                <chr>   <int>    <dbl> <dbl>    <dbl>
 1 Yes                  cushion    25 0.00187  0.693 0.00130 
 2 Yes                  combo      16 0.00120  0.693 0.000831
 3 Yes                  custom     16 0.00120  0.693 0.000831
 4 Yes                  oily       16 0.00120  0.693 0.000831
 5 Yes                  perfect    16 0.00120  0.693 0.000831
 6 Yes                  refill     16 0.00120  0.693 0.000831
 7 Yes                  50         14 0.00105  0.693 0.000727
 8 Yes                  compact    13 0.000974 0.693 0.000675
 9 Yes                  lifting    12 0.000899 0.693 0.000623
10 Yes                  satte      12 0.000899 0.693 0.000623
# … with 495 more rows
# ℹ Use `print(n = ...)` to see more rows
…
