Telling Stories with Data - 19 Efficiency
…
number_of_draws <- 1000000

some_data <- 
  tibble(
    first = runif(n = number_of_draws),
    second = sample(x = LETTERS, size = number_of_draws, replace = TRUE)
  )

tic("CSV")
write_csv(x = some_data,
          file = "some_data.csv")
read_csv(file = "some_data.csv")

# A tibble: 1,000,000 × 2
    first second
    <dbl> <chr> 
 1 0.471  D     
 2 0.367  W     
 3 0.197  Y     
 4 0.938  Y     
 5 0.710  A     
 6 0.0181 Y     
 7 0.321  Q     
 8 0.173  G     
 9 0.417  G     
10 0.0197 X     
# … with 999,990 more rows

toc()

CSV: 0.404 sec elapsed

tic("parquet")
write_parquet(x = some_data,
              sink = "some_data.parquet")
read_parquet(file = "some_data.parquet")

# A tibble: 1,000,000 × 2
    first second
    <dbl> <chr> 
 1 0.471  D     
 2 0.367  W     
 3 0.197  Y     
 4 0.938  Y     
 5 0.710  A     
 6 0.0181 Y     
 7 0.321  Q     
 8 0.173  G     
 9 0.417  G     
10 0.0197 X     
# … with 999,990 more rows
…
