Telling Stories with Data - Online Appendix A — R essentials
…
A.5.1 select()

We use select() to pick particular columns of a dataset. For instance, we might like to select the “firstName” column.

australian_politicians |>
  select(firstName)

# A tibble: 1,783 × 1
   firstName
   <chr>    
 1 Richard  
 2 Percy    
 3 Macartney
 4 Charles  
 5 Joseph   
 6 Anthony  
 7 John     
 8 Eric     
 9 Judith   
10 Dick     
# ℹ 1,773 more rows
…
The two appear similar—both pick the “firstName” column—but they differ in the class of what they return, with select() returning a tibble and $ returning a vector. For the sake of completeness, if we combine select() with pull() then we get the same class of output, a vector, as if we had used the extract operator.

australian_politicians |>
  select(firstName) |>
  pull() |>
  head()

[1] "Richard"   "Percy"     "Macartney" "Charles"   "Joseph"    "Anthony"  

We can also use select() to remove columns, by negating the column name.

australian_politicians |>
  select(-firstName)

# A tibble: 1,783 × 19
   uniqueID   surname allOtherNames   commonName displayName earlierOrLaterNames
   <chr>      <chr>   <chr>           <chr>      <chr>       <chr>              
 1 Abbott1859 Abbott  Richard Hartle… <NA>       Abbott, Ri… <NA>               
 2 Abbott1869 Abbott  Percy Phipps    <NA>       Abbott, Pe… <NA>               
 3 Abbott1877 Abbott  Macartney       Mac        Abbott, Mac <NA>               
 4 Abbott1886 Abbott  Charles Lydiar… Aubrey     Abbott, Au… <NA>               
 5 Abbott1891 Abbott  Joseph Palmer   <NA>       Abbott, Jo… <NA>               
 6 Abbott1957 Abbott  Anthony John    Tony       Abbott, To… <NA>               
 7 Abel1939   Abel    John Arthur     <NA>       Abel, John  <NA>               
 8 Abetz1958  Abetz   Eric            <NA>       Abetz, Eric <NA>               
 9 Adams1943  Adams   Judith Anne     <NA>       Adams, Jud… nee Bird           
10 Adams1951  Adams   Dick Godfrey H… <NA>       Adams, Dick <NA>               
# ℹ 1,773 more rows
# ℹ 13 more variables: title <chr>, gender <chr>, birthDate <date>,
#   birthYear <dbl>, birthPlace <chr>, deathDate <date>, member <dbl>,
#   senator <dbl>, wasPrimeMinister <dbl>, wikidataID <chr>, wikipedia <chr>,
#   adb <chr>, comments <chr>

Finally, we can select() based on conditions. For instance, we can select() all of the columns that start with, say, “birth”.

australian_politicians |>
  select(starts_with("birth"))

# A tibble: 1,783 × 3
   birthDate  birthYear birthPlace  
   <date>         <dbl> <chr>       
 1 NA              1859 Bendigo     
 2 1869-05-14        NA Hobart      
 3 1877-07-03        NA Murrurundi  
 4 1886-01-04        NA St Leonards 
 5 1891-10-18        NA North Sydney
 6 1957-11-04        NA London      
 7 1939-06-25        NA Sydney      
 8 1958-01-25        NA Stuttgart   
 9 1943-04-11        NA Picton      
10 1951-04-29        NA Launceston  
# ℹ 1,773 more rows
…
australian_politicians

# A tibble: 1,783 × 10
   uniqueID   surname firstName gender birthDate  birthYear deathDate  member
   <chr>      <chr>   <chr>     <chr>  <date>         <dbl> <date>      <dbl>
 1 Abbott1859 Abbott  Richard   male   NA              1859 1940-02-28      0
 2 Abbott1869 Abbott  Percy     male   1869-05-14        NA 1940-09-09      1
 3 Abbott1877 Abbott  Macartney male   1877-07-03        NA 1960-12-30      0
 4 Abbott1886 Abbott  Charles   male   1886-01-04        NA 1975-04-30      1
 5 Abbott1891 Abbott  Joseph    male   1891-10-18        NA 1965-05-07      1
 6 Abbott1957 Abbott  Anthony   male   1957-11-04        NA NA              1
 7 Abel1939   Abel    John      male   1939-06-25        NA NA              1
 8 Abetz1958  Abetz   Eric      male   1958-01-25        NA NA              0
 9 Adams1943  Adams   Judith    female 1943-04-11        NA 2012-03-31      0
10 Adams1951  Adams   Dick      male   1951-04-29        NA NA              1
# ℹ 1,773 more rows
# ℹ 2 more variables: senator <dbl>, wasPrimeMinister <dbl>

One thing that sometimes confuses people who are new to R, is that the output is not “saved”, unless you assign it to an object. For instance, here the first lines are australian_politicians <- australian_politicians |> and then select() is used, compared with australian_politicians |>. This ensures that the changes brought about by select() are applied to the object, and so it is that modified version that would be used at any point later in the code.

A.5.2 filter()

We use filter() to pick particular rows of a dataset. For instance, we might be only interested in politicians that became prime minister.

australian_politicians |>
  filter(wasPrimeMinister == 1)

# A tibble: 30 × 10
   uniqueID    surname firstName gender birthDate  birthYear deathDate  member
   <chr>       <chr>   <chr>     <chr>  <date>         <dbl> <date>      <dbl>
 1 Abbott1957  Abbott  Anthony   male   1957-11-04        NA NA              1
 2 Barton1849  Barton  Edmund    male   1849-01-18        NA 1920-01-07      1
 3 Bruce1883   Bruce   Stanley   male   1883-04-15        NA 1967-08-25      1
 4 Chifley1885 Chifley Joseph    male   1885-09-22        NA 1951-06-13      1
 5 Cook1860    Cook    Joseph    male   1860-12-07        NA 1947-07-30      1
 6 Curtin1885  Curtin  John      male   1885-01-08        NA 1945-07-05      1
 7 Deakin1856  Deakin  Alfred    male   1856-08-03        NA 1919-10-07      1
 8 Fadden1894  Fadden  Arthur    male   1894-04-13        NA 1973-04-21      1
 9 Fisher1862  Fisher  Andrew    male   1862-08-29        NA 1928-10-22      1
10 Forde1890   Forde   Francis   male   1890-07-18        NA 1983-01-28      1
# ℹ 20 more rows
# ℹ 2 more variables: senator <dbl>, wasPrimeMinister <dbl>
…
australian_politicians |>
  slice(853)

# A tibble: 1 × 10
  uniqueID     surname  firstName gender birthDate  birthYear deathDate member
  <chr>        <chr>    <chr>     <chr>  <date>         <dbl> <date>     <dbl>
1 Jakobsen1947 Jakobsen Carolyn   female 1947-09-11        NA NA             1
# ℹ 2 more variables: senator <dbl>, wasPrimeMinister <dbl>

While this may seem somewhat esoteric, it is especially useful if we would like to remove a particular row using negation, or duplicate specific rows. For instance, we could remove the first row.

australian_politicians |>
  slice(-1)

# A tibble: 1,782 × 10
   uniqueID    surname firstName gender birthDate  birthYear deathDate  member
   <chr>       <chr>   <chr>     <chr>  <date>         <dbl> <date>      <dbl>
 1 Abbott1869  Abbott  Percy     male   1869-05-14        NA 1940-09-09      1
 2 Abbott1877  Abbott  Macartney male   1877-07-03        NA 1960-12-30      0
 3 Abbott1886  Abbott  Charles   male   1886-01-04        NA 1975-04-30      1
 4 Abbott1891  Abbott  Joseph    male   1891-10-18        NA 1965-05-07      1
 5 Abbott1957  Abbott  Anthony   male   1957-11-04        NA NA              1
 6 Abel1939    Abel    John      male   1939-06-25        NA NA              1
 7 Abetz1958   Abetz   Eric      male   1958-01-25        NA NA              0
 8 Adams1943   Adams   Judith    female 1943-04-11        NA 2012-03-31      0
 9 Adams1951   Adams   Dick      male   1951-04-29        NA NA              1
10 Adamson1857 Adamson John      male   1857-02-18        NA 1922-05-02      0
# ℹ 1,772 more rows
# ℹ 2 more variables: senator <dbl>, wasPrimeMinister <dbl>
…
# A tibble: 3 × 10
  uniqueID   surname firstName gender birthDate  birthYear deathDate  member
  <chr>      <chr>   <chr>     <chr>  <date>         <dbl> <date>      <dbl>
1 Abbott1859 Abbott  Richard   male   NA              1859 1940-02-28      0
2 Abbott1869 Abbott  Percy     male   1869-05-14        NA 1940-09-09      1
3 Abbott1877 Abbott  Macartney male   1877-07-03        NA 1960-12-30      0
# ℹ 2 more variables: senator <dbl>, wasPrimeMinister <dbl>

Finally, we could duplicate the first two rows and this takes advantage of n() which provides the current group size.

australian_politicians |>
  slice(1:2, 1:n())

# A tibble: 1,785 × 10
   uniqueID   surname firstName gender birthDate  birthYear deathDate  member
   <chr>      <chr>   <chr>     <chr>  <date>         <dbl> <date>      <dbl>
 1 Abbott1859 Abbott  Richard   male   NA              1859 1940-02-28      0
 2 Abbott1869 Abbott  Percy     male   1869-05-14        NA 1940-09-09      1
 3 Abbott1859 Abbott  Richard   male   NA              1859 1940-02-28      0
 4 Abbott1869 Abbott  Percy     male   1869-05-14        NA 1940-09-09      1
 5 Abbott1877 Abbott  Macartney male   1877-07-03        NA 1960-12-30      0
 6 Abbott1886 Abbott  Charles   male   1886-01-04        NA 1975-04-30      1
 7 Abbott1891 Abbott  Joseph    male   1891-10-18        NA 1965-05-07      1
 8 Abbott1957 Abbott  Anthony   male   1957-11-04        NA NA              1
 9 Abel1939   Abel    John      male   1939-06-25        NA NA              1
10 Abetz1958  Abetz   Eric      male   1958-01-25        NA NA              0
# ℹ 1,775 more rows
# ℹ 2 more variables: senator <dbl>, wasPrimeMinister <dbl>

A.5.3 arrange()

We use arrange() to change the order of the dataset based on the values of particular columns. For instance, we could arrange the politicians by their birthday.

australian_politicians |>
  arrange(birthYear)

# A tibble: 1,783 × 10
   uniqueID    surname firstName gender birthDate birthYear deathDate  member
   <chr>       <chr>   <chr>     <chr>  <date>        <dbl> <date>      <dbl>
 1 Edwards1842 Edwards Richard   male   NA             1842 1915-10-29      1
 2 Sawers1844  Sawers  William   male   NA             1844 1916-05-19      1
 3 Barker1846  Barker  Stephen   male   NA             1846 1924-06-21      0
 4 Corser1852  Corser  Edward    male   NA             1852 1928-07-31      1
 5 Lee1856     Lee     Henry     male   NA             1856 1927-08-12      1
 6 Grant1857   Grant   John      male   NA             1857 1928-05-19      0
 7 Abbott1859  Abbott  Richard   male   NA             1859 1940-02-28      0
 8 Palmer1859  Palmer  Albert    male   NA             1859 1919-08-14      1
 9 Riley1859   Riley   Edward    male   NA             1859 1943-07-21      1
10 Kennedy1860 Kennedy Thomas    male   NA             1860 1929-02-16      1
# ℹ 1,773 more rows
# ℹ 2 more variables: senator <dbl>, wasPrimeMinister <dbl>

We could modify arrange() with desc() to change from ascending to descending order.

australian_politicians |>
  arrange(desc(birthYear))

# A tibble: 1,783 × 10
   uniqueID      surname firstName gender birthDate  birthYear deathDate  member
   <chr>         <chr>   <chr>     <chr>  <date>         <dbl> <date>      <dbl>
 1 McBain1982    McBain  Kristy    female 1982-09-29      1982 NA              1
 2 Cox1977       Cox     Dorinda   female NA              1977 NA              0
 3 Thorpe1973    Thorpe  Lidia     female 1973-08-18      1973 NA              0
 4 McLachlan1966 McLach… Andrew    male   1966-01-14      1966 NA              0
 5 Wortley1959   Wortley Dana      female NA              1959 NA              0
 6 Baker1903     Baker   Francis   male   NA              1903 1939-03-28      1
 7 Clay1900      Clay    Lionel    male   NA              1900 1965-04-16      1
 8 Breen1898     Breen   John      male   NA              1898 1966-02-05      1
 9 Clasby1891    Clasby  John      male   NA              1891 1932-01-15      1
10 Gander1888    Gander  Joseph    male   NA              1888 1954-11-22      1
# ℹ 1,773 more rows
# ℹ 2 more variables: senator <dbl>, wasPrimeMinister <dbl>

This could also be achieved with the minus sign.

australian_politicians |>
  arrange(-birthYear)

# A tibble: 1,783 × 10
   uniqueID      surname firstName gender birthDate  birthYear deathDate  member
   <chr>         <chr>   <chr>     <chr>  <date>         <dbl> <date>      <dbl>
 1 McBain1982    McBain  Kristy    female 1982-09-29      1982 NA              1
 2 Cox1977       Cox     Dorinda   female NA              1977 NA              0
 3 Thorpe1973    Thorpe  Lidia     female 1973-08-18      1973 NA              0
 4 McLachlan1966 McLach… Andrew    male   1966-01-14      1966 NA              0
 5 Wortley1959   Wortley Dana      female NA              1959 NA              0
 6 Baker1903     Baker   Francis   male   NA              1903 1939-03-28      1
 7 Clay1900      Clay    Lionel    male   NA              1900 1965-04-16      1
 8 Breen1898     Breen   John      male   NA              1898 1966-02-05      1
 9 Clasby1891    Clasby  John      male   NA              1891 1932-01-15      1
10 Gander1888    Gander  Joseph    male   NA              1888 1954-11-22      1
# ℹ 1,773 more rows
# ℹ 2 more variables: senator <dbl>, wasPrimeMinister <dbl>

And we could arrange based on more than one column. For instance, if two politicians have the same first name, then we could also arrange based on their birthday.

australian_politicians |>
  arrange(firstName, birthYear)

# A tibble: 1,783 × 10
   uniqueID      surname firstName gender birthDate  birthYear deathDate  member
   <chr>         <chr>   <chr>     <chr>  <date>         <dbl> <date>      <dbl>
 1 Blain1894     Blain   Adair     male   1894-11-21        NA 1983-04-28      1
 2 Armstrong1909 Armstr… Adam      male   1909-07-01        NA 1982-02-22      1
 3 Bandt1972     Bandt   Adam      male   1972-03-11        NA NA              1
 4 Dein1889      Dein    Adam      male   1889-03-04        NA 1969-05-09      1
 5 Ridgeway1962  Ridgew… Aden      male   1962-09-18        NA NA              0
 6 Bennett1933   Bennett Adrian    male   1933-01-21        NA 2006-05-09      1
 7 Gibson1935    Gibson  Adrian    male   1935-11-03        NA 2015-04-30      1
 8 Wynne1850     Wynne   Agar      male   1850-01-15        NA 1934-05-12      1
 9 Robertson1882 Robert… Agnes     female 1882-07-31        NA 1968-01-29      0
10 Bird1906      Bird    Alan      male   1906-09-28        NA 1962-07-21      1
# ℹ 1,773 more rows
# ℹ 2 more variables: senator <dbl>, wasPrimeMinister <dbl>

We could achieve the same result by piping between two instances of arrange().

australian_politicians |>
  arrange(birthYear) |>
  arrange(firstName)

# A tibble: 1,783 × 10
   uniqueID      surname firstName gender birthDate  birthYear deathDate  member
   <chr>         <chr>   <chr>     <chr>  <date>         <dbl> <date>      <dbl>
 1 Blain1894     Blain   Adair     male   1894-11-21        NA 1983-04-28      1
 2 Armstrong1909 Armstr… Adam      male   1909-07-01        NA 1982-02-22      1
 3 Bandt1972     Bandt   Adam      male   1972-03-11        NA NA              1
 4 Dein1889      Dein    Adam      male   1889-03-04        NA 1969-05-09      1
 5 Ridgeway1962  Ridgew… Aden      male   1962-09-18        NA NA              0
 6 Bennett1933   Bennett Adrian    male   1933-01-21        NA 2006-05-09      1
 7 Gibson1935    Gibson  Adrian    male   1935-11-03        NA 2015-04-30      1
 8 Wynne1850     Wynne   Agar      male   1850-01-15        NA 1934-05-12      1
 9 Robertson1882 Robert… Agnes     female 1882-07-31        NA 1968-01-29      0
10 Bird1906      Bird    Alan      male   1906-09-28        NA 1962-07-21      1
# ℹ 1,773 more rows
# ℹ 2 more variables: senator <dbl>, wasPrimeMinister <dbl>

When we use arrange() we should be clear about precedence. For instance, changing to birthday and then first name would give a different arrangement.

australian_politicians |>
  arrange(birthYear, firstName)

# A tibble: 1,783 × 10
   uniqueID    surname firstName gender birthDate birthYear deathDate  member
   <chr>       <chr>   <chr>     <chr>  <date>        <dbl> <date>      <dbl>
 1 Edwards1842 Edwards Richard   male   NA             1842 1915-10-29      1
 2 Sawers1844  Sawers  William   male   NA             1844 1916-05-19      1
 3 Barker1846  Barker  Stephen   male   NA             1846 1924-06-21      0
 4 Corser1852  Corser  Edward    male   NA             1852 1928-07-31      1
 5 Lee1856     Lee     Henry     male   NA             1856 1927-08-12      1
 6 Grant1857   Grant   John      male   NA             1857 1928-05-19      0
 7 Palmer1859  Palmer  Albert    male   NA             1859 1919-08-14      1
 8 Riley1859   Riley   Edward    male   NA             1859 1943-07-21      1
 9 Abbott1859  Abbott  Richard   male   NA             1859 1940-02-28      0
10 Kennedy1860 Kennedy Thomas    male   NA             1860 1929-02-16      1
# ℹ 1,773 more rows
# ℹ 2 more variables: senator <dbl>, wasPrimeMinister <dbl>

A nice way to arrange by a variety of columns is to use across(). It enables us to use the “selection helpers” such as starts_with() that were mentioned in association with select().

australian_politicians |>
  arrange(across(c(firstName, birthYear)))

# A tibble: 1,783 × 10
   uniqueID      surname firstName gender birthDate  birthYear deathDate  member
   <chr>         <chr>   <chr>     <chr>  <date>         <dbl> <date>      <dbl>
 1 Blain1894     Blain   Adair     male   1894-11-21        NA 1983-04-28      1
 2 Armstrong1909 Armstr… Adam      male   1909-07-01        NA 1982-02-22      1
 3 Bandt1972     Bandt   Adam      male   1972-03-11        NA NA              1
 4 Dein1889      Dein    Adam      male   1889-03-04        NA 1969-05-09      1
 5 Ridgeway1962  Ridgew… Aden      male   1962-09-18        NA NA              0
 6 Bennett1933   Bennett Adrian    male   1933-01-21        NA 2006-05-09      1
 7 Gibson1935    Gibson  Adrian    male   1935-11-03        NA 2015-04-30      1
 8 Wynne1850     Wynne   Agar      male   1850-01-15        NA 1934-05-12      1
 9 Robertson1882 Robert… Agnes     female 1882-07-31        NA 1968-01-29      0
10 Bird1906      Bird    Alan      male   1906-09-28        NA 1962-07-21      1
# ℹ 1,773 more rows
# ℹ 2 more variables: senator <dbl>, wasPrimeMinister <dbl>

australian_politicians |>
  arrange(across(starts_with("birth")))

# A tibble: 1,783 × 10
   uniqueID     surname  firstName gender birthDate  birthYear deathDate  member
   <chr>        <chr>    <chr>     <chr>  <date>         <dbl> <date>      <dbl>
 1 Braddon1829  Braddon  Edward    male   1829-06-11        NA 1904-02-02      1
 2 Ferguson1830 Ferguson John      male   1830-03-15        NA 1906-03-30      0
 3 Zeal1830     Zeal     William   male   1830-12-05        NA 1912-03-11      0
 4 Fraser1832   Fraser   Simon     male   1832-08-21        NA 1919-07-30      0
 5 Groom1833    Groom    William   male   1833-03-09        NA 1901-08-08      1
 6 Sargood1834  Sargood  Frederick male   1834-05-30        NA 1903-01-02      0
 7 Fysh1835     Fysh     Philip    male   1835-03-01        NA 1919-12-20      1
 8 Playford1837 Playford Thomas    male   1837-11-26        NA 1915-04-19      0
 9 Solomon1839  Solomon  Elias     male   1839-09-02        NA 1909-05-23      1
10 McLean1840   McLean   Allan     male   1840-02-03        NA 1911-07-13      1
# ℹ 1,773 more rows
# ℹ 2 more variables: senator <dbl>, wasPrimeMinister <dbl>

A.5.4 mutate()

We use mutate() when we want to make a new column. For instance, perhaps we want to make a new column that is 1 if a person was both a member and a senator and 0 otherwise. That is to say that our new column would denote politicians that served in both the upper and the lower house.

australian_politicians <-
  australian_politicians |>
  mutate(was_both = if_else(member == 1 & senator == 1, 1, 0))

australian_politicians |>
  select(member, senator, was_both)

# A tibble: 1,783 × 3
   member senator was_both
    <dbl>   <dbl>    <dbl>
 1      0       1        0
 2      1       1        1
 3      0       1        0
 4      1       0        0
 5      1       0        0
 6      1       0        0
 7      1       0        0
 8      0       1        0
 9      0       1        0
10      1       0        0
# ℹ 1,773 more rows
…
