Telling Stories with Data - Appendix H — Class activities
…
The following code provides estimates for the speed of light, from three experiments, each of 20 runs. Please create an average speed of light, per experiment, then use knitr::kable() to create a cross-referenced table, with specified column names, and no significant digits.

datasets::morley |> 
  tibble()

# A tibble: 100 × 3
    Expt   Run Speed
   <int> <int> <int>
 1     1     1   850
 2     1     2   740
 3     1     3   900
 4     1     4  1070
 5     1     5   930
 6     1     6   850
 7     1     7   950
 8     1     8   980
 9     1     9   980
10     1    10   880
# … with 90 more rows
…
