Telling Stories with Data - Online Appendix J — Class activities
…
tidy_anscombe_MCAR

# A tibble: 44 × 3
   set       x     y
   <chr> <dbl> <dbl>
 1 1        10  8.04
 2 2        10  9.14
 3 3        NA NA   
 4 4         8 NA   
 5 1         8  6.95
 6 2         8  8.14
 7 3         8  6.77
 8 4         8  5.76
 9 1        NA  7.58
10 2        13  8.74
# ℹ 34 more rows
…
tidy_anscombe_MNAR

# A tibble: 44 × 3
   set       x     y
   <chr> <dbl> <dbl>
 1 1        NA NA   
 2 1        NA NA   
 3 1         9 NA   
 4 1        11  8.33
 5 1        10  8.04
 6 1        NA  7.58
 7 1         6  7.24
 8 1         8  6.95
 9 1         5  5.68
10 1         7  4.82
# ℹ 34 more rows
…
